[
  {
    "objectID": "index.html",
    "href": "index.html",
    "title": "TE-nacious Flies",
    "section": "",
    "text": "drosophila-redeyes icon by Servier https://smart.servier.com/ is licensed under CC-BY 3.0 Unported https://creativecommons.org/licenses/by/3.0/\nWelcome to the TE-nacius project notebook.\n🔗 Download the te-nacious_bioinformatics_project.pdf to get it in PDF format.\nFind this document source code on FramaGit.\n🔗 The (french) report is also available to download."
  },
  {
    "objectID": "introduction.html",
    "href": "introduction.html",
    "title": "2  Introduction",
    "section": "",
    "text": "TE-nacious is a student project on transposable elements."
  },
  {
    "objectID": "notebooks/starting_blocks.html#data-summary",
    "href": "notebooks/starting_blocks.html#data-summary",
    "title": "3  Starting blocks analysis",
    "section": "3.1 Data Summary",
    "text": "3.1 Data Summary\n\n3.1.1 File list\nin ./data directory:\n\n\n\nFile name\nDescription\n\n\n\n\ndmel-all-translation-r6.38.fasta\nproteome\n\n\ndmel-all-transposon-r6.38.fasta\ntransposon sequences\n\n\nDmelanogaster_6_38_positions_genes.list\ngene positions\n\n\n\nAll three files data concern the Drosophila melanogaster species, version r6.38.\n\n\n3.1.2 Quick statistics\n\nNumber of chromosomes:\n\n\nUsing the genes positions list:\n\nawk -F ' ' '{ print $2 }' data/Dmelanogaster_6_38_positions_genes.list \\\n    | sort | uniq | wc -l\n⚠️ This command takes into account all different first word in loc= field including for instance: - 2L, 2R - rDNA - mitochondrion_genome - and even “211000022279188”, whose significance is unknown.\n./src/list_chromosomes.awk ./data/Dmelanogaster_6_38_positions_genes.list\n\nUsing the proteome file:\n\n./src/list_chromosomes_fasta.awk \\\n    ./data/dmel-all-translation-r6.38.fasta \\\n    | sort -n\nX\nY\n2\n3\n4\nIn D. melanogaster, there are 3 autosomes pairs (2, 3, 4), and a pair of sexual chromosomes (X and Y).\n\nTotal number of transposable elements (TEs) identified in dmel-all-transposon-r6.38.fasta file:\n\nawk '\n/^&gt;/ {\n    name = $1\n    gsub(\"&gt;\", \"\", name)\n    split(name, name_array, \" \")\n    id = name_array[1]\n    print id\n}' ./data/dmel-all-transposon-r6.38.fasta | sort | uniq | wc -l\n5392\n\nNumber of TEs per chromosome:\n\nawk -F  ';' '\n/^&gt;/ {\n    # Extract chromosome ID\n    location = $2\n    gsub(\"loc=\", \"\", location)\n    split(location, location_array, \":\")\n    chromosome = location_array[1]\n    counter[chromosome]++\n}\nEND {\n    for (chromosome in counter) {\n        print chromosome, counter[chromosome]\n    }\n}\n' ./data/dmel-all-transposon-r6.38.fasta | sort -d -k 1\n\n\n\nChromosome (arm)\nNumber of TEs\n\n\n\n\n2L\n919\n\n\n2R\n1358\n\n\n3L\n1056\n\n\n3R\n631\n\n\n4\n541\n\n\nX\n887\n\n\n\nInterestingly enough, there is no TE reported on the Y chromosome.\n\nNumber of TEs families:\n\nLet us first extract all TE IDs from the dmel-all-transposon-r6.38.fasta file:\negrep \"^&gt;\" ./data/dmel-all-transposon-r6.38.fasta &gt; ./data/out/dmel-all-transposon-r6.38.list\nThen, we can extract the TE family ID from the TE ID:\nawk -F ';' '\n{\n    name = $3\n    gsub(\"name=\", \"\", name)\n    split(name, name_array, \"{}\")\n    gsub(\" \", \"\", name_array[1])\n    family = name_array[1]\n    print family\n} ' ./data/out/dmel-all-transposon-r6.38.list \\\n    | sort -d | uniq &gt; ./data/out/dmel-all-transposon-r6.38.families.list\nNumber of TE families (raw):\nwc -l ./data/out/dmel-all-transposon-r6.38.families.list\n126\nNumber of copies of each TE family:\nawk '\nBEGIN{\n    FS = \";\"\n    OFS = \"\\t\"\n}\n{\n    name = $3\n    gsub(\"name=\", \"\", name)\n    split(name, name_array, \"{}\")\n    gsub(\" \", \"\", name_array[1])\n    family = name_array[1]\n    counter[family]++\n}\nEND {\n    for (family in counter) {\n        print family, counter[family]\n    }\n}\n ' ./data/out/dmel-all-transposon-r6.38.list &gt; ./data/out/dmel-all-transposon-r6.38.families.count\nLet us plot this data:\n\n\n\n\n\nNumber of copies of each TE family. Families with more than 50 copies are shown. Some sub families (e.g of Gypsy, Invader, etc.) are grouped together."
  },
  {
    "objectID": "notebooks/starting_blocks.html#transposable-elements-classification",
    "href": "notebooks/starting_blocks.html#transposable-elements-classification",
    "title": "3  Starting blocks analysis",
    "section": "3.2 Transposable Elements Classification",
    "text": "3.2 Transposable Elements Classification\n\nDNA\nSINE\nLINE\nLTR\n\n\n\n\n\n\nNumber of copies of commulated TE families per Superfamilies\n\n\n\n\n\n\n[1] \"LTR\"\n\n\n\n\n\nNumber of copies per superfamiles, per class. Class of interest are indicated in color.\n\n\n\n\n\n3.2.1 Family choice reloaded\n\n3.2.1.1 Source file description\n\n\n\n\n\n\n\nFile\nDescription\n\n\n\n\ndmel-all-transposon-r6.38.fasta\nTransposon sequences from Drosophila melanogaster\n\n\ndata/references/*\nTransposon families reference sequences either in EMBL or FASTA format\n\n\ndata/references/liste_familles_ET_fichierref.txt\nListe des familles et des fichiers de référence\n\n\n\nhead data/references/liste_familles_ET_fichierref.txt\nNom_ET Classe Type_principal Nom_fichier_ref\n1360 classII transposon 1360.txt\n1731 classI LTR 1731.txt\n17.6 classI LTR 17.6.txt\n297 classI LTR 297.txt\n3S18 classI LTR 3S18.txt\n412 classI LTR 412.txt\nBS classI no-LTR BS.txt\nBS3 classI no-LTR BS3_Repbase.txt\nBS4 classI no-LTR BS4_Repbase.txt\n\n\n\n3.2.2 A more precise analyzis of class distribution\n\nlibrary(ggplot2)\nlibrary(dplyr)\n\n# Get hits count for each families\nfamily_count_df &lt;- read.table(\"../../data/out/dmel-all-transposon-r6.38.families.count\", sep = \"\\t\", header = FALSE)\ncolnames(family_count_df) &lt;- c(\"Nom_ET\", \"count\")\n\n\n# Get class for each families\nfamily_class_df &lt;- read.table(\"../../data/references/liste_familles_ET_fichierref.txt\", sep = \" \", header = TRUE)\n\nhead(family_class_df)\n\n  Nom_ET  Classe Type_principal Nom_fichier_ref\n1   1360 classII     transposon        1360.txt\n2   1731  classI            LTR        1731.txt\n3   17.6  classI            LTR        17.6.txt\n4    297  classI            LTR         297.txt\n5   3S18  classI            LTR        3S18.txt\n6    412  classI            LTR         412.txt\n\nfamily_df &lt;- family_class_df %&gt;% \n  left_join(family_count_df, by = \"Nom_ET\") %&gt;% \n  mutate(count = ifelse(is.na(count), 0, count))\n\n# Filter for above 20 hist\nfamily_df &lt;- family_df %&gt;% \n  filter(count &gt; 20) %&gt;% filter(!is.na(Type_principal))\n\nhead(family_df)\n\n   Nom_ET  Classe Type_principal Nom_fichier_ref count\n1    1360 classII     transposon        1360.txt   303\n2     297  classI            LTR         297.txt    80\n3     412  classI            LTR         412.txt    37\n4      BS  classI         no-LTR          BS.txt    43\n5     BS3  classI         no-LTR BS3_Repbase.txt    29\n6 Burdock  classI            LTR     Burdock.txt    22\n\nggplot(data = family_df, aes(x = Nom_ET, y = count, fill = Type_principal)) + \n  geom_bar(stat = \"identity\") + \n  theme(axis.text.x = element_text(angle = 90, hjust = 1, vjust=0.5))\n\n\n\n\n\n\n3.2.3 Choice of families\n\nlibrary(tidyverse)\n\nfamily_count_df &lt;- read.table(\"../../data/out/dmel-all-transposon-r6.38.families.count\", sep = \"\\t\", header = FALSE)\ncolnames(family_count_df) &lt;- c(\"Nom_ET\", \"count\")\n\nfamily_class_df &lt;- read.table(\"../../data/references/liste_familles_ET_fichierref.txt\", sep = \" \", header = TRUE)\n\nfamily_df &lt;- family_class_df %&gt;% \n  left_join(family_count_df, by = \"Nom_ET\") %&gt;% \n  mutate(count = ifelse(is.na(count), 0, count))\n  \n\nfamily_DNA_df &lt;- family_df %&gt;% \n  filter(Type_principal == \"transposon\") %&gt;% \n  arrange(desc(count))\n\nfamily_LTR_df &lt;- family_df %&gt;%\n  filter(Type_principal == \"LTR\") %&gt;% \n  arrange(desc(count))\n\nfamily_nonLTR_df &lt;- family_df %&gt;%\n  filter(Type_principal == \"no-LTR\") %&gt;% \n  arrange(desc(count))\n\n# Plot DNA transposon with bar ordered by desc counts using reorder\nggplot(data = family_DNA_df, aes(x = reorder(Nom_ET, -count), y = count)) + \n  geom_bar(stat = \"identity\") + \n  theme(axis.text.x = element_text(angle = 90, hjust = 1, vjust=0.5)) +\n  ggtitle(\"DNA transposon\") +\n  xlab(\"Family\") +\n  ylab(\"Copy count\")\n\n\n\n# Plot LTR transposon with bar ordered by desc counts using reorder\nggplot(data = family_LTR_df, aes(x = reorder(Nom_ET, -count), y = count)) + \n  geom_bar(stat = \"identity\") + \n  theme(axis.text.x = element_text(angle = 90, hjust = 1, vjust=0.5)) +\n  ggtitle(\"LTR transposon families distribution\") +\n  xlab(\"Family\") +\n  ylab(\"Copy count\")\n\n\n\n# Plot non-LTR transposon with bar ordered by desc counts using reorder\nggplot(data = family_nonLTR_df, aes(x = reorder(Nom_ET, -count), y = count)) + \n  geom_bar(stat = \"identity\") + \n  theme(axis.text.x = element_text(angle = 90, hjust = 1, vjust=0.5)) +\n  ggtitle(\"non-LTR transposon families distribution\") +\n  xlab(\"Family\") +\n  ylab(\"Copy count\")\n\n\n\n\n\nChoice of transposon families for the further detailed analysis\n\n\nType\nFamily\n\n\n\n\nDNA\nhopper\n\n\nLTR retrotransposon\nHMS-Beagle\n\n\nno-LTR retrotransposon\nBS"
  },
  {
    "objectID": "notebooks/pairwise_alignment.html#source-files-description",
    "href": "notebooks/pairwise_alignment.html#source-files-description",
    "title": "4  Pairwise alignment of transposons",
    "section": "4.1 Source files description",
    "text": "4.1 Source files description"
  },
  {
    "objectID": "notebooks/pairwise_alignment.html#blast-analysis",
    "href": "notebooks/pairwise_alignment.html#blast-analysis",
    "title": "4  Pairwise alignment of transposons",
    "section": "4.2 Blast analysis",
    "text": "4.2 Blast analysis\n\nConvert reference EMBL Sequences to FASTA format\n\nExample for gypsy12:\nseqret  ./data/references/gypsy12.embl ./data/out/align/gypsy12.fasta \n\nExtract all gypsy12 transposons hits from ./data/dmel-all-transposon-r6.38.fasta\n\n#!/bin/awk -f\n# Extract transposon sequences from a FASTA file containing multiple transposon sequences\n# Usage: ./extract_family_sequences.awk -v target=\"gypsy12\" input.fasta &gt; output.fasta\n# where target is the family name to extract\n# Detect the beginning of a new sequence of the target family\n/^&gt;/ {\n    name = $4\n    gsub(\"name=\", \"\", name)\n    split(name, name_array, \"{}\")\n    gsub(\" \", \"\", name_array[1])\n    family = name_array[1]\n    if (family ~ target) {\n        print $0\n        flag = 1\n    } else {\n        flag = 0\n    }\n}\n\n# Print nucleotide sequence only if it is a part of a hit of the target family\n/^[^&gt;]/ && flag == 1 {\n    print $0\n}\n./src/extract_family_sequences.awk -v target=\"gypsy12\" ./data/dmel-all-transposon-r6.38.fasta &gt; ./data/out/align/gypsy12-all.fasta\n\nPerform blast analysis\n\nmakeblastdb -in ./data/out/align/gypsy12-all.fasta -parse_seqids -dbtype nucl -out data/out/align/db/gypsy12\nblastn -query ./data/out/align/gypsy12.fasta -db ./data/out/align/db/gypsy12 -outfmt 7 -out ./data/out/align/gypsy12.blast\nGYPSY12 FBti0060275 99.550  10001   8   3   255 10218   1   10001   0.0 18185\nGYPSY12 FBti0060275 100.000 2336    0   0   1   2336    7666    10001   0.0 4314\nGYPSY12 FBti0060275 97.876  2119    8   3   8137    10218   1   2119    0.0 3629\nGYPSY12 FBti0060275 95.522  67  2   1   2932    2998    2659    2724    6.62e-24    106\nGYPSY12 FBti0060275 95.522  67  2   1   2876    2941    2715    2781    6.62e-24    106\nGYPSY12 FBti0060690 82.332  832 120 9   5820    6639    1   817 0.0 697\nGYPSY12 FBti0060690 77.990  577 91  23  828 1386    10637   11195   3.61e-91    329\nGYPSY12 FBti0060690 77.990  577 91  23  8710    9268    10637   11195   3.61e-91    329\nGYPSY12 FBti0063052 78.017  1160    194 26  5046    6193    916 2026    0.0 673\nGYPSY12 FBti0061766 86.200  471 57  7   1798    2265    1513    1978    2.01e-143   503\nThis blast report in TSV format contains the following columns:\nqseqid sseqid pident length mismatch gapopen qstart qend sstart send evalue bitscore\n\n\n\n\n\n\n\n\nColumn\nDescription\nComment\n\n\n\n\nqseqid\nQuery (e.g., gene) sequence id\nHere the reference transposon\n\n\nsseqid\nSubject (e.g., reference genome) sequence id\nHere the transposon hit id\n\n\npident\nIdentity percentage\n\n\n\nlength\nAlignment length\n\n\n\nmismatch\nNumber of mismatches\n\n\n\ngapopen\nNumber of gap openings\n\n\n\nqstart\nStart of alignment in query\n\n\n\nqend\nEnd of alignment in query\n\n\n\nsstart\nStart of alignment in subject\n\n\n\nsend\nEnd of alignment in subject\n\n\n\nevalue\n\\(e\\)-value\n\n\n\nbitscore\nScore\n\n\n\n\nA bash script is written in order to automate the process detailed above.\nWe can then use:\n ./src/transposon_blast_ref2hit.sh &lt;family_name&gt;\nfor each family of interest, and it will generate the fasta sequence subset, reference fasta, and blast report.\nfor family in hopper HMS-Beagle BS; do\n  ./src/transposon_blast_ref2hit.sh $family\ndone"
  },
  {
    "objectID": "notebooks/pairwise_alignment.html#sanity-check",
    "href": "notebooks/pairwise_alignment.html#sanity-check",
    "title": "4  Pairwise alignment of transposons",
    "section": "4.3 Sanity check",
    "text": "4.3 Sanity check\nfor family in hopper HMS-Beagle BS; do\n  echo \"Checking $family family\"\n  hsp_count=$(grep -c \"^[^&gt;]\" \"./data/out/align/$family.blast\")\n  if [ $hsp_count -eq 0 ]; then\n    echo \"No HSP found in $family family\"\n  else\n    echo \"$hsp_count HSPs found in $family family\"\n  fi\ndone\nChecking hopper family\n35 HSPs found in hopper family\nChecking HMS-Beagle family\n72 HSPs found in HMS-Beagle family\nChecking BS family\n73 HSPs found in BS family\nAs wanted, we find several HSPs for each family of interest."
  },
  {
    "objectID": "notebooks/family_analyzis.html#analyzis-of-some-of-the-members-of-our-three-families",
    "href": "notebooks/family_analyzis.html#analyzis-of-some-of-the-members-of-our-three-families",
    "title": "5  Transposon family analyzis",
    "section": "5.1 Analyzis of some of the members of our three families",
    "text": "5.1 Analyzis of some of the members of our three families\n\n5.1.1 Class II - transposon - hopper\nWe wrote a little script for FLAP CLI usage automation. It takes as input the name of the family and the ID of the copy and retrieve the corresponding alignment file and sequence lengths and call FLAP with the right parameters to generate the plot.\nExample of usage of flappy.sh:\n./src/flappy.sh \"hopper\" \"FBti0020139\" \"./documents/media/figures/hopper-FBti0020139.svg\"\n\n\n\nSchema of the Hopper transposon family reference alignment against FBti0020139 copy\n\n\n\n\n5.1.2 Class I - LTR retrotransposon - HMS-Beagle\n\n\n\nSchema of the HMS-Beagle retrotransposon family reference alignment against FBti0019143 copy\n\n\nFBti0019143 copy is almost identical to the reference sequence. This copy should be able to transpose. Again we can see LTR sequences on both sides of the copy.\n\n\n\nSchema of the HMS-Beagle retrotransposon family reference alignment against FBti0019130 copy\n\n\nThis copy is more degraded than the previous one. It has a lot of gaps and the LTR sequences are harder to find. This kind of copy may be dysfunctional.\n\n\n5.1.3 Class I - no-LTR retrotransposon - BS\n\n\n\nSchema of the BS no-LTR retrotransposon family reference alignment against FBti0019410 copy\n\n\nThis copy corresponds to a quite small part of the reference sequence. This transposon copy must be unable to transpose.\n\n\n\nSchema of the BS no-LTR retrotransposon family reference alignment against FBti0019957 copy\n\n\n\n\n\nSchema of the BS no-LTR retrotransposon family reference alignment against FBti0020125 copy\n\n\nBoth FBti0020125 and FBti0019957 BS copies have a reversed sequence part compared to the reference sequence, the CDS seems to switch of strand. There exists also a HSP at the end of the sequence."
  },
  {
    "objectID": "notebooks/te-alignment_database.html#specifications",
    "href": "notebooks/te-alignment_database.html#specifications",
    "title": "6  Building a Transposable Elements database",
    "section": "6.1 Specifications",
    "text": "6.1 Specifications\n\nWe want to store informations about D. melanogaster TE copies:\n\nStart position, End position on chromosome, length, family, sense.\n\nReference TE copies for families are stored too (fasta format);\nGene location on chromosome are stored (with access number, and function stated in description line);\nInformations from blast copies against reference are stored. We take into account:\n\nThe score;\nThe identity percentage;\nThe alignment length of the best hit;\nCoverage;\nNumber of local alignments.\n\nWe want to take into account:\n\nThe TE classification (the three groups at least);\nChromosome sizes;\n\n\n\nSteps: 1. Conceptual model (entity-association scheme); 2. Logic model (relational model); - Table description, domains, and foreign keys; 3. SQL implementation; 1. Database setup; 2. Schema setup; 3. Data insertion;"
  },
  {
    "objectID": "notebooks/te-alignment_database.html#modeling",
    "href": "notebooks/te-alignment_database.html#modeling",
    "title": "6  Building a Transposable Elements database",
    "section": "6.2 Modeling",
    "text": "6.2 Modeling\n\n\n\nEntity-Association scheme\n\n\n\n6.2.1 Correction\n\n\n\nEntity-Association scheme\n\n\nTODO: in report, explain each entity and association, definitions."
  },
  {
    "objectID": "notebooks/te-alignment_database.html#relational-logic-scheme",
    "href": "notebooks/te-alignment_database.html#relational-logic-scheme",
    "title": "6  Building a Transposable Elements database",
    "section": "6.3 Relational / logic scheme",
    "text": "6.3 Relational / logic scheme\nFamily(family_name, family_class)\nChromosome(name, size)\nGene(gene_id, #chromosome_name, function_annotation, start_position, end_position, orientation)\nTransposableElement(sequence_id, #chromosome_name, #family_name, start_position, end_position, length, orientation, fasta_sequence)\nBlastHSP(hsp_id, #query_id, #subject_id, score, identity, alignment_length, coverage, number_of_local_alignments, evalue, bit_score)\nThis has to be improved, cf. report."
  },
  {
    "objectID": "notebooks/te-alignment_database.html#database-setup",
    "href": "notebooks/te-alignment_database.html#database-setup",
    "title": "6  Building a Transposable Elements database",
    "section": "6.4 Database setup",
    "text": "6.4 Database setup\nThe following relate the procedure I used on my Fedora 37 installation.\n\nInstall PostgreSQL\n\nsudo dnf install postgresql postgresql-server postgresql-contrib\nsudo postgresql-setup --initdb --unit postgresql\nsudo systemctl start postgresql\n\nCreate a database\n\nsudo -u postgres createdb tenacious\n\nCreate a user\n\nsudo -u postgres createuser -P tenacious\n\nGrant privileges to the user\n\nsudo -u postgres psql\nGRANT ALL PRIVILEGES ON DATABASE tenacious TO tenacious;\n\nAllow remote connections\n\nOpen /var/lib/pgsql/data/pg_hba.conf\nsudo vim /var/lib/pgsql/data/pg_hba.conf\nand edit host all all 127.0.0.1/32 ident to host all all 127.0.0.1/32 md5.\n\nConnect to the database\n\npsql --host=127.0.0.1 --dbname=tenacious --username=tenacious --password"
  },
  {
    "objectID": "notebooks/te-alignment_database.html#setup-the-schema",
    "href": "notebooks/te-alignment_database.html#setup-the-schema",
    "title": "6  Building a Transposable Elements database",
    "section": "6.5 Setup the schema",
    "text": "6.5 Setup the schema\npsql --host=127.0.0.1 --dbname=tenacious --username=tenacious --password &lt; ./database/schema.sql\nFor reference, here is the schema:\n-- Create TE-nacious database schema\n\n-- Create a table for chromosomes\nCREATE TABLE IF NOT EXISTS chromosomes (\n    numero_chromosome VARCHAR(2) NOT NULL,\n    taille_chromosome INT NOT NULL,\n    CONSTRAINT pk_chromosome PRIMARY KEY (numero_chromosome)\n);\n\n-- Create a table for genes\nCREATE TABLE IF NOT EXISTS genes (\n    numero_accession_gene VARCHAR(20) NOT NULL,\n    gene_length INT NOT NULL,\n    CONSTRAINT pk_gene PRIMARY KEY (numero_accession_gene)\n);\n\n-- Create a table for gene location\nCREATE TABLE IF NOT EXISTS gene_location (\n    numero_accession_gene VARCHAR(20) NOT NULL,\n    numero_chromosome VARCHAR(2) NOT NULL,\n    start_position INT NOT NULL,\n    end_position INT NOT NULL,\n    orientation VARCHAR(1) NOT NULL,\n    CONSTRAINT pk_gene_location PRIMARY KEY (numero_accession_gene, numero_chromosome),\n    CONSTRAINT fk_gene_location_gene FOREIGN KEY (numero_accession_gene) REFERENCES genes (numero_accession_gene),\n    CONSTRAINT fk_gene_location_chromosome FOREIGN KEY (numero_chromosome) REFERENCES chromosomes (numero_chromosome)\n);\n\n-- Create a table for tranposable elements\nCREATE TABLE IF NOT EXISTS transposable_elements (\n    numero_accession_te VARCHAR(20) NOT NULL,\n    te_length INT NOT NULL,\n    CONSTRAINT pk_te PRIMARY KEY (numero_accession_te)\n);\n\n-- Create a table for TE location\nCREATE TABLE IF NOT EXISTS te_location (\n    numero_accession_te VARCHAR(20) NOT NULL,\n    numero_chromosome VARCHAR(2) NOT NULL,\n    start_position INT NOT NULL,\n    end_position  INT NOT NULL,\n    orientation VARCHAR(1) NOT NULL,\n    CONSTRAINT pk_te_location PRIMARY KEY (numero_accession_te, numero_chromosome),\n    CONSTRAINT fk_te_location_te FOREIGN KEY (numero_accession_te) REFERENCES transposable_elements (numero_accession_te),\n    CONSTRAINT fk_te_location_chromosome FOREIGN KEY (numero_chromosome) REFERENCES chromosomes (numero_chromosome)\n);\n\n-- Create a table for TE vs TE blast HSPs\nCREATE TABLE IF NOT EXISTS blast_hits (\n    numero_accession_te1 VARCHAR(20) NOT NULL,\n    numero_accession_te2 VARCHAR(20) NOT NULL,\n    pident REAL NOT NULL,\n    length  INT NOT NULL,\n    coverage REAL NOT NULL,\n    evalue REAL NOT NULL,\n    number_of_hits INT NOT NULL,\n    CONSTRAINT pk_blast_hits PRIMARY KEY (numero_accession_te1, numero_accession_te2),\n    CONSTRAINT fk_blast_hits_te1 FOREIGN KEY (numero_accession_te1) REFERENCES transposable_elements (numero_accession_te),\n    CONSTRAINT fk_blast_hits_te2 FOREIGN KEY (numero_accession_te2) REFERENCES transposable_elements (numero_accession_te)\n);"
  },
  {
    "objectID": "notebooks/te-alignment_database.html#data-integration",
    "href": "notebooks/te-alignment_database.html#data-integration",
    "title": "6  Building a Transposable Elements database",
    "section": "6.6 Data integration",
    "text": "6.6 Data integration\n\n6.6.1 Generate TSV files\n\n6.6.1.1 chromosomes\nI retrieved chromosome sizes from NCBI Taxonomy database https://www.ncbi.nlm.nih.gov/data-hub/genome/GCF_000001215.4/.\nX   AE014298.5  NC_004354.4 23,542,271  42  446 2,708   \n2L  AE014134.6  NT_033779.5 23,513,712  41.5    0   3,515   \n2R  AE013599.5  NT_033778.4 25,286,936  42.5    0   3,653   \n3L  AE014296.5  NT_037436.4 28,110,227  41.5    0   3,489   \n3R  AE014297.3  NT_033777.3 32,079,331  42.5    0   4,226   \n4   AE014135.4  NC_004353.4 1,348,131   35  0   114 \nY   CP007106.1  NC_024512.1 3,667,352   39  199 113 \nMT  KJ947872.2  NC_024511.2 19,524  17.5    0   37\nThis file contains the following columns:\nChromosome\nGenBank\nRefSeq\nSize (bp)\nGC content (%)  \nUnlocalized count\nGene count\nawk -F '\\t' '\nBEGIN {\n    OFS = \"\\t\"\n}{\n    name=$1\n    size=$4\n    gsub(\",\", \"\", size)\n    print name, size\n}' ./data/chromosomes.tsv &gt; ./data/out/db/chromosomes.tsv\nThen, we can import the data into postgres database:\npgsql -d tenacious\n\\copy chromosomes from './data/out/db/chromosomes.tsv';\nWhich returns\nCOPY 8\n\\o/\n\n\n6.6.1.2 genes\nFirst let’s generate a TSV file with the following columns:\nnumero_accession_gene\ngene_length\n\nWe uses Dmelanogaster_6_38_positions_genes.list\nextract:\nFBgn0031081 loc=X 19961297 19969323 +\nFBgn0052826 loc=X 20025099 20025170 +\nFBgn0031085 loc=X 20051294 20052519 +\nFBgn0062565 loc=X 20094398 20095767 +\nFBgn0031088 loc=X 20133579 20138878 +\nawk -F ' ' '\nfunction abs(x) { return x &lt; 0 ? -x : x }\nBEGIN {\n    OFS=\"\\t\"\n}\n{\n    gene_id=$1\n    chromosome=$2\n    if (chrosomome == \"mitochondrion_genome\") {\n        chromosome=\"MT\"\n    }\n    gsub(\"loc=\", \"\", chromosome)\n    if (length(chromosome) &lt;= 2) {\n        start_position=$3\n        end_position=$4\n        orientation=$5\n        print gene_id, abs(start_position-end_position)  \n    }\n}\n' ./data/Dmelanogaster_6_38_positions_genes.list &gt; ./data/out/db/genes.tsv\nThen, we can import the data into postgres database in the same manner.\n\\copy genes from './data/out/db/genes.tsv';\n\n\n6.6.1.3 Gene location\nawk -F ' ' '\nBEGIN {\n    OFS=\"\\t\"\n}\n{\n    gene_id=$1\n    chromosome=$2\n    gsub(\"loc=\", \"\", chromosome)\n    if (chrosomome == \"mitochondrion_genome\") {\n        chromosome=\"MT\"\n    }\n    if (length(chromosome) &lt;= 2) {        \n        start_position=$3\n        end_position=$4\n        orientation=$5\n        print gene_id, chromosome, start_position, end_position, orientation\n    }\n}' ./data/Dmelanogaster_6_38_positions_genes.list &gt; ./data/out/db/gene_location.tsv\nThen, we can import the data into postgres database in the same manner.\n\\copy gene_location from './data/out/db/gene_location.tsv';\n\n\n6.6.1.4 families\nawk '\nBEGIN {\n    OFS=\"\\t\"\n}\nNR &gt; 1 {\n    transposon_family=$1\n    transposon_type=$3\n    if (length(transposon_type) &gt; 0) {\n        print transposon_family, transposon_type\n    }\n}\n' ./data/references/liste_familles_ET_fichierref.txt &gt; ./data/out/db/families.tsv\n\\copy families from './data/out/db/families.tsv';\n\n\n6.6.1.5 transposable_elements\nawk '\nBEGIN {\n    OFS=\"\\t\"\n    print \"id\", \"family\", \"chromosome\", \"start\", \"end\", \"length\", \"complement\"\n}\n/^&gt;/ {\n    transposon_id=$1\n    gsub(\"&gt;\", \"\", transposon_id)\n    transposon_position=$3\n    gsub(\"loc=\", \"\", transposon_position)\n    gsub(\";\", \"\", transposon_position)\n    split(transposon_position, location_array, \":\")\n    transposon_chromosome=location_array[1]\n    coordinates=location_array[2]\n    if (coordinates ~ \"complement\") {\n        complement=\"+\"\n        gsub(\"complement\", \"\", coordinates)\n        gsub(\"\\\\(\", \"\", coordinates)\n        gsub(\"\\\\)\", \"\", coordinates)\n    } else {\n        complement=\"-\"\n    }\n    split(coordinates, position_array, \"\\\\.\\\\.\")\n    transposon_start=position_array[1]\n    transposon_end=position_array[2]\n    transposon_name=$4\n    gsub(\"name=\", \"\", transposon_name)\n    split(transposon_name, name_array, \"{}\")\n    gsub(\" \", \"\", name_array[1])\n    transposon_family = name_array[1]\n    transposon_length=$7\n    gsub(\";\", \"\", transposon_length)\n    gsub(\"length=\", \"\", transposon_length)\n    print transposon_id, transposon_family, transposon_chromosome, transposon_start, transposon_end, transposon_length, complement\n}\n' ./data/dmel-all-transposon-r6.38.fasta &gt; ./data/out/db/transposable_elements_all.tsv\nI had to fix DM88 to Dm88 in the file ./data/out/db/transposable_elements_all.tsv\nawk -F '\\t' '\nBEGIN {\n    OFS=\"\\t\"\n}\nNR &gt; 1 {\n    transposon_id=$1\n    transposon_family=$2\n    transposon_length=$6\n    print transposon_id, transposon_family, transposon_length\n}' ./data/out/db/transposable_elements_all.tsv &gt; ./data/out/db/transposable_elements.tsv\n\\copy transposable_elements from './data/out/db/transposable_elements.tsv';\nCOPY 5392\n\n\n6.6.1.6 Transposable elements locations\nawk -F '\\t' '\nBEGIN {\n    OFS=\"\\t\"\n}\nNR &gt; 1 {\n    numero_accession_te=$1\n    chromosome=$3\n    start_position=$4\n    end_position=$5\n    orientation=$7\n    print numero_accession_te, chromosome, start_position, end_position, orientation\n}' ./data/out/db/transposable_elements_all.tsv &gt; ./data/out/db/transposable_elements_location.tsv\nThis information concerns almost only the copie (and not the reference).\n\\copy te_location from './data/out/db/transposable_elements_location.tsv';\nLet’s add a column to specify that the TE is a reference (not to be done in the future, with fixed schema).\nALTER TABLE transposable_elements ADD COLUMN reference boolean DEFAULT false;\nWe need to add references too.\nLet’s do that with SQL queries:\nINSERT INTO transposable_elements (\n    numero_accession_te,\n    family_name,\n    te_length, \n    reference) \n    VALUES (\n        'AF365402',\n        'HMS-Beagle',\n        7062,\n        true\n    );\nSequence length was retrieved using the following command\n./src/fasta_sequence_length.awk -v idx=1 ./data/out/align/HMS-Beagle.fasta\n7062\nI wrote a little script (./src/include_reference_sequences.sh) to automate this process a little bit.\n#!/usr/bin/env bash\n: '\nCreate a TSV table with reference sequence entries into `transposable_elements` table.\n'\n\nfamily_names() {\n    awk '\n    NR &gt; 1 {\n        print $1\n    }\n    ' ./data/references/liste_familles_ET_fichierref.txt\n}\n\nblastify() {\n    local family_name\n    family_name=\"$1\"\n    ./src/transposon_blast_ref2hit.sh \"$family_name\"\n}\n\nsequence_length() {\n    local file_name\n    file_name=\"$1\"\n    ./src/fasta_sequence_length.awk -v idx=1 $file_name\n}\n\nsequence_id() {\n    local fasta\n    fasta=\"$1\"\n    awk '\n    NR == 1 && /^&gt;/ {\n        sequence_id=$1\n        gsub(/^&gt;/, \"\", sequence_id)\n        print sequence_id\n    }' $fasta\n}\n\ngimmedata() {\n    local family_name\n    family_name=\"$1\"\n    # $(blastify \"$family_name\")\n    local file_name\n    file_name=\"./data/out/align/$family_name.fasta\"\n    if [[ -e $file_name ]]; then\n        length=$(sequence_length \"$file_name\")\n        sequence_id=$(sequence_id \"./data/out/align/$family_name.fasta\")\n        echo -e $sequence_id'\\t'$family_name'\\t'$length'\\t''true'\n    else\n        echo \"No file $file_name\" &gt; /dev/stderr\n    fi\n}\n\nfor family_name in $(family_names); do\n    gimmedata \"$family_name\"    \ndone\n./src/include_reference_sequences.sh &gt; ./data/out/db/references.tsv\nNo file ./data/out/align/Bari2.fasta\nNo file ./data/out/align/Doc2.fasta\nNo file ./data/out/align/Doc3.fasta\nNo file ./data/out/align/HMS-Beagle2.fasta\nNo file ./data/out/align/HeT-Tag.fasta\nNo file ./data/out/align/Q.fasta\nNo file ./data/out/align/R1A1.fasta\nNo file ./data/out/align/Rt1a.fasta\nNo file ./data/out/align/Rt1b.fasta\nNo file ./data/out/align/Stalker3.fasta\nNo file ./data/out/align/Tc1.fasta\nNo file ./data/out/align/Tc3.fasta\nNo file ./data/out/align/Y.fasta\nNo file ./data/out/align/rooA.fasta\nThis lines from /dev/stderr recall that some reference sequences file are missing.\nhead ./data/out/db/references.tsv\nAF533772        1360    2843    true\nDMTN1731        1731    4648    true\nDMIS176 17.6    7439    true\nDMIS297 297     6995    true\nDMU23420        3S18    6126    true\nDMRT412G        412     6897    true\nDMBSTE  BS      8697    true\nBS3     BS3     1790    true\nBS4     BS4     754     true\nY13852  Bari1   1676    true\nFair enough.\n\\copy transposable_elements from './data/out/db/references.tsv';\n(Please note, that the transposable element added manually previously may cause a duplicate key violation.\nSo:\nDELETE FROM transposable_elements WHERE numero_accession_te = 'AF365402';\n)\nSadly, there exists duplicated reference sequence accession numbers\nLet’s make an attempt to clean this mess.\nawk -F '\\t' '\nBEGIN {\n    OFS=\"\\t\"\n}\n{\n    numero_accession_te=$1\n    numeros[numero_accession_te]++\n}\nEND {\n    for (numero_accession_te in numeros) {\n        if (numeros[numero_accession_te] &gt; 1) {\n            print numero_accession_te, numeros[numero_accession_te]\n        }\n    }\n}' ./data/out/db/references.tsv\nHopefully, there is only one duplicate.\nDMFBTRAN  2\nThis corresponds to the families FB and NOF.\nWe will simply remove them from the references.\ngrep -vE 'DMFBTRAN' ./data/out/db/references.tsv &gt; ./data/out/db/references_cleaned.tsv\nAgain:\n\\copy transposable_elements from './data/out/db/references_cleaned.tsv';\nCOPY 109\nThat’s a bit better, even if we lost 16 families in the battle.\n\n\n6.6.1.7 blast results\nWe currently have $family_name.blast files in ./data/out/align/ (for almost all TE families). These files are formated in format 7 (tabular) blast output.\nWhat we want: a TSV file with following columns:\n\nnumero_accession_te1\nnumero_accession_te2\npident (best hit)\nlength (best hit)\ncoverage (with all hits)\nevalue (best hit)\nnumber_of_hits\n\nLet’s use a python script to do this (see ./src/include_reference_sequences.py) or below listing.\n#!/usr/bin/env python3\n# -*- coding: utf-8 -*-\n\"\"\"\nCreate a TSV table with data from BLAST HSPs,\nwith following columns:\n- `numero_accession_te1` \n- `numero_accession_te2` \n- `pident` (best hit)\n- `length` (best hit)\n- `coverage` (with all hits)\n- `evalue` (best hit)\n- `number_of_hits`\n\"\"\"\n\nimport pandas as pd\nimport os\nfrom Bio import SeqIO\n\ndef family_names(reference_file):\n    try:\n        family_names_df = pd.read_csv(reference_file, sep=' ', header=0, comment=\"#\")\n        family_names = family_names_df['Nom_ET'].tolist()\n    except:\n        raise Exception(f\"ERROR: error while reading {reference_file}\")\n    return family_names\n\ndef load_blast_hsps(blast_hsps_file):\n    \"\"\"\n    Load BLAST HSPs from a TSV file.\n    :param blast_hsps_file: path to the TSV file\n    :return: pd.DataFrame with BLAST HSPs\n    \"\"\"\n    blast_hsps = pd.read_csv(blast_hsps_file, sep='\\t', comment=\"#\")\n    blast_hsps.columns = [\"queryid\", \"subjectid\", \"pident\", \"length\", \"mismatch\", \"gapopen\", \"qstart\", \"qend\", \"sstart\", \"send\", \"evalue\", \"bitscore\"]\n    return blast_hsps\n\ndef coverage(hsp_coordinates, reference_length):\n    \"\"\"\n    Compute alignment coverage for a given set of HSP coordinates.\n    We assume that the coverage cannot be greater than 100% (that is 1.0).\n    :param hsp_coordinates: list of tuples (start, end)\n    :param reference_length: length of the reference sequence\n    \"\"\"\n    def merge_overlaps(coordinates, start_index=0):\n        \"\"\"\n        Merge overlapping coordinates.\n   \n        :param coordinates: list of tuples (start, end)\n        :return list of tuples (start, end)\n\n        ref: https://stackoverflow.com/a/49072633\n        \"\"\" \n        for i in range(start_index, len(coordinates) - 1):\n            if coordinates[i][1] &gt; coordinates[i+1][0]:\n                new_start = coordinates[i][0]\n                new_end = max(coordinates[i][1], coordinates[i+1][1])\n                coordinates[i] = (new_start, new_end)\n                del coordinates[i+1]\n                return merge_overlaps(coordinates, i)\n        return coordinates\n    \n    # Merge overlapping coordinates\n    merged_coordinates = merge_overlaps(hsp_coordinates)\n    # Compute coverage\n    coverage = sum([end - start for start, end in merged_coordinates]) / reference_length\n    coverage = min(coverage, 1.0)\n    return coverage\n\ndef blast_stats(blast_hsps, query_id, subject_id, reference_length):\n    \"\"\"\n    Compute BLAST statistics for a given query and subject.\n    :param blast_hsps: pd.DataFrame with BLAST HSPs\n    :return: tuple (pident, length, coverage, evalue, number_of_hits)\n    \"\"\"\n    coordinates = []\n    best_length = 0\n    hits_count = 0\n    for i, hsp in blast_hsps.iterrows():\n        if hsp[\"queryid\"] == query_id and hsp[\"subjectid\"] == subject_id:\n            coordinates.append((hsp[\"qstart\"], hsp[\"qend\"]))\n            if hsp[\"length\"] &gt; best_length:\n                best_length = hsp[\"length\"]\n                best_pident = hsp[\"pident\"]\n                best_evalue = hsp[\"evalue\"]\n            hits_count += 1\n    cov = coverage(coordinates, reference_length)\n    return best_pident, best_length, cov, best_evalue, hits_count\n\ndef reference_id_and_length(reference_file):\n    bio_sequence = SeqIO.read(reference_file, \"fasta\")\n    id = bio_sequence.id\n    return id, len(bio_sequence)\n\ndef family_reference_lengths(family_names):\n    reference_lengths = {}\n    for family_name in family_names:\n        reference_file = f\"./data/out/align/{family_name}.fasta\"\n        id, length = reference_id_and_length(reference_file)\n        reference_lengths[id] = length\n    return reference_lengths\n\ndef main():\n    REFERENCE_FILE = \"./data/references/liste_familles_ET_fichierref.txt\"\n    df_collected = pd.DataFrame(columns=[\"numero_accession_te1\", \"numero_accession_te2\", \"pident\", \"length\", \"coverage\", \"evalue\", \"number_of_hits\"])\n    for family_name in family_names(REFERENCE_FILE):\n        reference_fasta = f\"./data/out/align/{family_name}.fasta\"\n        if not os.path.exists(reference_fasta):\n            print(f\"WARNING: {reference_fasta} does not exist\")\n            continue\n        id, length = reference_id_and_length(reference_fasta)\n        blast_hsps_file = f\"./data/out/align/{family_name}.blast\"\n        if not os.path.exists(blast_hsps_file):\n            continue\n        try:\n            blast_hsps = load_blast_hsps(blast_hsps_file)\n        except:\n            print(f\"WARNING: error while reading {blast_hsps_file}\")\n            continue\n        for subject_id in blast_hsps[\"subjectid\"].unique():\n            pident, length, coverage, evalue, number_of_hits = blast_stats(blast_hsps, id, subject_id, length)\n            if number_of_hits &gt; 0:\n                df_collected.loc[len(df_collected)] = [id, subject_id, pident, length, coverage, evalue, number_of_hits]\n    # Map a very small evalue to 0.0 (to avoid issues with pgsql real precision)\n    df_collected[\"evalue\"] = df_collected[\"evalue\"].apply(lambda x: 0.0 if x &lt; 1e307 else x) \n    # Save results\n    df_collected.to_csv(\"./data/out/db/blast_hsps.tsv\", sep='\\t', index=False, float_format=\"%1.2e\")\n\nif __name__ == \"__main__\":\n    main()\n./src/include_blast_hsps.py\nWARNING: error while reading ./data/out/align/Bari1.blast\nWARNING: ./data/out/align/Bari2.fasta does not exist\nWARNING: ./data/out/align/Doc2.fasta does not exist\nWARNING: ./data/out/align/Doc3.fasta does not exist\nWARNING: ./data/out/align/HMS-Beagle2.fasta does not exist\nWARNING: ./data/out/align/HeT-Tag.fasta does not exist\nWARNING: ./data/out/align/Q.fasta does not exist\nWARNING: ./data/out/align/R1A1.fasta does not exist\nWARNING: ./data/out/align/Rt1a.fasta does not exist\nWARNING: ./data/out/align/Rt1b.fasta does not exist\nWARNING: ./data/out/align/Stalker3.fasta does not exist\nWARNING: error while reading ./data/out/align/TART-B.blast\nWARNING: ./data/out/align/Tc1.fasta does not exist\nWARNING: ./data/out/align/Tc3.fasta does not exist\nWARNING: error while reading ./data/out/align/Tom1.blast\nWARNING: ./data/out/align/Y.fasta does not exist\nWARNING: error while reading ./data/out/align/ZAM.blast\nWARNING: ./data/out/align/rooA.fasta does not exist\npython3 src/include_blast_hsps.py | wc -l\nreturns 19 (which is expected, since we have 19 families with missing informations).\nThe moment of truth:\n\\copy blast_hits from './data/out/db/blast_hsps.tsv' DELIMITER E'\\t' CSV HEADER;\nAnd as we could expect:\nCONTEXT:  COPY blast_hits, line 11, column evalue: \"6.110000000000001e-163\"\nWe need further cleaning…\nOn 2023-04-19:\nawk -F '\\t' '\n{\n    evalue = $6\n    print evalue\n}\n' ./data/out/db/blast_hsps.tsv | sort -g | uniq | head \nevalue\n0.0000e+00\n1.3600e-180\n1.4900e-180\n3.5700e-180\n4.8900e-180\n4.6200e-179\n4.9300e-179\n5.3100e-179\n6.3300e-179\nWe will simply convert the evalue with: \\[\ne_{value} = 0.0 \\text { if } e_{value} &lt; 1e-307 \\text{ else } e_{value}\n\\]\n\nSur la plupart des plates-formes, le type real a une étendue d’au moins 1E-37 à 1E37. Le type double precision a généralement une étendue de 1E-307 à 1E+308 avec une précision d’au moins quinze chiffres. https://docs.postgresql.fr/11/datatype-numeric.html\n\nLet’s alter the table:\nALTER TABLE blast_hits ALTER COLUMN evalue TYPE double precision;\n(again, this will be unnecessary with new database schema.)\nHowever, we still have a problem:\n\nERROR: insert or update on table “blast_hits” violates foreign key constraint “fk_blast_hits_te1” DETAIL: Key (numero_accession_te1)=(DMFBTRAN) is not present in table “transposable_elements”.\n\nWe face the same issue as before…\ngrep -vE 'DMFBTRAN' ./data/out/db/blast_hsps.tsv &gt; ./data/out/db/blast_hsps_cleaned.tsv\n\\copy blast_hits from './data/out/db/blast_hsps_cleaned.tsv' DELIMITER E'\\t' CSV HEADER;\nFinally:\nCOPY 2246\n\n\n\n6.6.2 All in one postgres\n\nIn case of an emergency table drop… (provided ./data/out/db/ has not been deleted)\n\n\\copy chromosomes from './data/out/db/chromosomes.tsv';\n\\copy genes from './data/out/db/genes.tsv';\n\\copy gene_location from './data/out/db/gene_location.tsv';\n\\copy families from './data/out/db/families.tsv';\n\\copy transposable_elements from './data/out/db/transposable_elements.tsv';\n\\copy te_location from './data/out/db/transposable_elements_location.tsv';\n\\copy transposable_elements from './data/out/db/references_cleaned.tsv';\n\\copy blast_hits from './data/out/db/blast_hsps_cleaned.tsv' DELIMITER E'\\t' CSV HEADER;"
  },
  {
    "objectID": "notebooks/te-alignment_database.html#make-a-backup",
    "href": "notebooks/te-alignment_database.html#make-a-backup",
    "title": "6  Building a Transposable Elements database",
    "section": "6.7 Make a backup",
    "text": "6.7 Make a backup\npg_dump -d tenacious &gt; ./database/dumps/20230419_tenacious_dump.sql"
  },
  {
    "objectID": "notebooks/te-alignment_database.html#references",
    "href": "notebooks/te-alignment_database.html#references",
    "title": "6  Building a Transposable Elements database",
    "section": "6.8 References",
    "text": "6.8 References\n\nfedora-docs-pgsql"
  },
  {
    "objectID": "notebooks/te-position-bias.html#chromosome-distribution",
    "href": "notebooks/te-position-bias.html#chromosome-distribution",
    "title": "7  Is there a detectable bias in Transposable Elements positioning ?",
    "section": "7.1 Chromosome distribution",
    "text": "7.1 Chromosome distribution\nWe will try to reproduce figure 2 from Kaminker et al. (2002). Each chromosomes are represented by a line and dots are the position of the transposable elements.\n\n\nCode\n# Query data from sql database\nm &lt;- dbDriver(\"PostgreSQL\")\ndb &lt;- 'tenacious'\ncon &lt;- dbConnect(m, dbname=db)\n# Check if connection is ok\ndbListTables(con) # We can see the tables \\o/\n\n\n[1] \"chromosomes\"           \"genes\"                 \"families\"             \n[4] \"te_location\"           \"gene_location\"         \"transposable_elements\"\n[7] \"blast_hits\"           \n\n\nCode\n# Get transposable elements coordinates\nquery &lt;- \"SELECT numero_chromosome, start_position, end_position, orientation FROM te_location\"\nte_location &lt;- dbGetQuery(con, query)\nchromosomes &lt;- dbGetQuery(con, \"SELECT numero_chromosome, taille_chromosome FROM chromosomes\")\n# Filter out mitochondrial chromosome and Y chromosome\nchromosomes &lt;- chromosomes %&gt;% filter(numero_chromosome != 'MT') %&gt;% filter(numero_chromosome != \"Y\") %&gt;% arrange(numero_chromosome)\n# head(te_location)\n\n\n\n\nCode\nplot_chrom_density &lt;- function(te_coordinates, chromosomes) {\n    width &lt;- 1\n    height &lt;- 1\n    max_length &lt;- max(chromosomes$taille_chromosome)\n    scale_x &lt;- function(x) {\n        x/max_length * width\n    }\n    # Plot chromosome as segment of propOrtional sizes\n    plot.new()\n    plot.window(xlim = c(-0.1, 1), ylim = c(0, 1))\n    for (i in 1:nrow(chromosomes)) {\n        y &lt;- i/nrow(chromosomes) * height\n        size &lt;- scale_x(chromosomes$taille_chromosome[i])\n        segments(x0 = 0, y0 = y, x1 = size, y1 = y, lwd = 5)\n        # Draw a label for each chromosome\n        text(x = -0.05, y = y - 0.01, labels = chromosomes$numero_chromosome[i], cex = 1.5, pos = 3)\n        # Draw telomere position if chromosome is splitted\n        if (grepl(\"R\", chromosomes$numero_chromosome[i])) {\n            draw.circle(x=0, y=y, radius=0.01, col=\"red\")\n        }\n        if (grepl(\"L\", chromosomes$numero_chromosome[i])) {\n            draw.circle(x=size, y=y, radius=0.01, col=\"red\")\n        }\n    }\n    # Plot transposable elements\n    coords = list(x=c(), y=c()) \n    for (i in 1:nrow(te_coordinates)) {\n        chromosome &lt;- te_coordinates$numero_chromosome[i]\n        y &lt;- which(chromosomes$numero_chromosome == chromosome)/nrow(chromosomes) * height - 0.01\n        x &lt;- scale_x(te_coordinates$start_position[i])\n        coords$x &lt;- c(coords$x, x)\n        coords$y &lt;- c(coords$y, y)\n    }\n    points(coords$x, jitter(coords$y), pch=20, cex=0.5)\n}\n\nplot_chrom_density(te_location, chromosomes)\ntitle(main = \"TE distribution on chromosomes, y-jittered for visibility\")\n\n\n\n\n\n\n\n\n\nCode\n# dev.print(png, \"./documents/media/plots/te_distribution_chromosome.png\", width = 10, height = 10, units = \"in\", res = 300)\n\n\nLet’s plot the same figure with the genes positions two.\n\n\nCode\n# Retrieve genes coordinates\nquery &lt;- \"SELECT numero_chromosome, start_position, end_position, orientation FROM gene_location\"\ngenes_location &lt;- dbGetQuery(con, query)\n# head(genes_location)\n\n\n\n\nCode\nplot_chrom_density_with_genes &lt;- function(te_coordinates, genes_coordinates, chromosomes) {\n    width &lt;- 1\n    height &lt;- 1\n    max_length &lt;- max(chromosomes$taille_chromosome)\n    scale_x &lt;- function(x) {\n        x/max_length * width\n    }\n    # Plot chromosome as segment of propOrtional sizes\n    plot.new()\n    plot.window(xlim = c(-0.1, 1), ylim = c(0, 1))\n    for (i in 1:nrow(chromosomes)) {\n        y &lt;- i/(nrow(chromosomes)) * height\n        size &lt;- scale_x(chromosomes$taille_chromosome[i])\n        segments(x0 = 0, y0 = y, x1 = size, y1 = y, lwd = 5)\n        # Draw a label for each chromosome\n        text(x = -0.05, y = y - 0.01, labels = chromosomes$numero_chromosome[i], cex = 1.5, pos = 3)\n        # Draw telomere position if chromosome is splitted\n        if (grepl(\"R\", chromosomes$numero_chromosome[i])) {\n            draw.circle(x=0, y=y, radius=0.01, col=\"red\")\n        }\n        if (grepl(\"L\", chromosomes$numero_chromosome[i])) {\n            draw.circle(x=size, y=y, radius=0.01, col=\"red\")\n        }\n    }\n    # Plot transposable elements\n    coords = list(x=c(), y=c()) \n    for (i in 1:nrow(te_coordinates)) {\n        chromosome &lt;- te_coordinates$numero_chromosome[i]\n        y &lt;- which(chromosomes$numero_chromosome == chromosome)/nrow(chromosomes) * height - 0.01\n        x &lt;- scale_x(te_coordinates$start_position[i])\n        coords$x &lt;- c(coords$x, x)\n        coords$y &lt;- c(coords$y, y)\n    }\n    points(coords$x, jitter(coords$y) + 0.05, pch=20, cex=0.5, legend = \"TE\")\n    # Plot genes\n    coords_genes = list(x=c(), y=c())\n    for (i in 1:nrow(genes_coordinates)) {\n        chromosome &lt;- genes_coordinates$numero_chromosome[i]\n        y &lt;- which(chromosomes$numero_chromosome == chromosome)/(nrow(chromosomes)) * height - 0.01\n        x &lt;- scale_x(genes_coordinates$start_position[i])\n        coords_genes$x &lt;- c(coords$x, x)\n        coords_genes$y &lt;- c(coords$y, y)\n    }\n    points(coords_genes$x, jitter(coords_genes$y) - 0.025, pch=20, cex=0.5, col=primarycolor, legend = \"Genes\")\n    legend(\"topright\", legend = c(\"TE\", \"Genes\"), pch = 20, col = c(\"black\", primarycolor), cex = 1.5)\n}\nplot_chrom_density_with_genes(te_location, genes_location, chromosomes)\ntitle(main = \"TE and gene distributions on chromosomes\")\n\n\n\n\n\n\n\n\n\nCode\n# dev.print(png, \"./documents/media/plots/te_distribution_chromosome_genes.png\", width = 10, height = 10, units = \"in\", res = 300)\n\n\nThis shows that TE positions is correlated to genes positions: the more there are genes, the more there aire transposable elements.\nWe can also find quasi empty regions around centromeres (?).\n\n\nCode\n#' Coordinates density in region\n#' Use sliding window to count density of TE along 3R chromosome\n#' @param coordinates\n#' @param window_size\n#' @param window_step\ndensity_in_region &lt;- function(coordinates, window_size, window_step, max_coordinates = NULL, min_coordinates = 0) {\n    if (is.null(max_coordinates)) {\n        max_coordinates &lt;- max(coordinates)\n    }\n    regions &lt;- seq(min_coordinates, max_coordinates, window_step)\n    densities &lt;- rep(0, length(regions))\n    i &lt;- 1\n    for (region in regions) {\n        density &lt;- sum(coordinates &gt;= region & coordinates &lt;= region + window_size)\n        densities[i] &lt;- density\n        i &lt;- i + 1\n    }\n    return(data.frame(region=regions, density=densities))\n}\n\nsliding_size &lt;- 10e5\nsliding_step &lt;- 10e3\nchromosome_numero &lt;- \"3R\"\nchromosome_length &lt;- chromosomes %&gt;% filter(numero_chromosome == chromosome_numero) %&gt;% pull(taille_chromosome)\nte_coordinates &lt;- te_location %&gt;% filter(numero_chromosome == chromosome_numero) %&gt;% pull(start_position)\ngene_coordinates &lt;- genes_location %&gt;% filter(numero_chromosome == chromosome_numero) %&gt;% pull(start_position)\nregion_te_densities &lt;- density_in_region(te_coordinates, sliding_size, sliding_step, min_coordinates = 0, max_coordinates = chromosome_length)\nregion_gene_densities &lt;- density_in_region(gene_coordinates, sliding_size, sliding_step, min_coordinates = 0, max_coordinates = chromosome_length)\n\n\n\n\nCode\nggplot(region_te_densities, aes(x=region, y=density)) +\n    geom_line() +\n    labs(x=\"Position along chromosome\", y=\"Density of TE\") +\n    ggtitle(paste0(c(\"Transposable elements density along \", chromosome_numero, \" chromosome (window size: \", sliding_size, \", step: \", sliding_step, \")\"), collapse=\"\"))\n\n\n\n\n\n\n\n\n\nCode\n# ggsave(\"../media/plots/te_density_chromosome_3R.png\", width = 10, height = 10, units = \"in\", dpi = 300)\n\n\n\n\nCode\nggplot() +\n    geom_line(data=region_gene_densities, aes(x=region, y=density), col=primarycolor) +\n    labs(x=\"Position along chromosome\", y=\"Density of gene\") +\n    ggtitle(paste0(c(\"Genes density along 3R chromosome \", chromosome_numero, \" (window size: \", sliding_size, \", step: \", sliding_step, \")\"), collapse=\"\"))\n\n\n\n\n\n\n\n\n\nCode\n# ggsave(\"../media/plots/gene_density_chromosome_3R.png\", width = 10, height = 10, units = \"in\", dpi = 300) \n\n\n\n\nCode\nggplot() +\n    geom_line(data=region_gene_densities, aes(x=region, y=density, color=\"gene\")) +\n    geom_line(data=region_te_densities, aes(x=region, y=density, color=\"TE\")) +\n    labs(x=\"Position along chromosome\", y=\"Density of gene\") +\n    ggtitle(paste0(c(\"Genes and TE densities along 3R chromosome \", chromosome_numero, \" (window size: \", sliding_size, \", step: \", sliding_step, \")\"), collapse=\"\"))\n\n\n\n\n\nCode\n# ggsave(\"../media/plots/gene_te_density_chromosome_3R.pdf\", dpi = 300)"
  },
  {
    "objectID": "notebooks/te-position-bias.html#testing-te-family-gene-distance-hypotheses",
    "href": "notebooks/te-position-bias.html#testing-te-family-gene-distance-hypotheses",
    "title": "7  Is there a detectable bias in Transposable Elements positioning ?",
    "section": "7.2 Testing TE family gene distance hypotheses",
    "text": "7.2 Testing TE family gene distance hypotheses\nHypothesis: There exists a family \\(\\mathcal{F}\\), such that the distance between a TE and the nearest gene is smaller than the distance between a TE and the nearest gene of another family \\(\\mathcal{F}'\\).\nLet’s construct a table with the following columns: - TE id - Family name - Distance to the nearest gene\nCREATE FUNCTION distance_to_gene(te_start INTEGER, te_end INTEGER, gene_start INTEGER, gene_end INTEGER) RETURNS INTEGER AS $$\n    DECLARE\n        distance INTEGER;\n    BEGIN\n        IF te_start &gt; gene_end THEN\n            distance := te_start - gene_end;\n        ELSIF te_end &lt; gene_start THEN\n            distance := gene_start - te_end;\n        ELSE\n            distance := 0;\n        END IF;\n        RETURN distance;\n    END;\n$$ LANGUAGE plpgsql;\nCREATE FUNCTION\nSELECT te.numero_accession_te AS te_id, te.family_name AS family_name, distance_to_gene(te_loc.start_position, te_loc.end_position, gene_loc.start_position, gene_loc.end_position) AS distance \nFROM transposable_elements te, te_location te_loc, gene_location gene_loc\nWHERE te.numero_accession_te = te_loc.numero_accession_te\nAND te_loc.numero_chromosome = gene_loc.numero_chromosome\nAND distance_to_gene(te_loc.start_position, te_loc.end_position, gene_loc.start_position, gene_loc.end_position) = ALL(\n    SELECT MIN(distance_to_gene(te_loc.start_position, te_loc.end_position, gene_loc_2.start_position, gene_loc_2.end_position))\n    FROM gene_location gene_loc_2\n    WHERE te_loc.numero_chromosome = gene_loc_2.numero_chromosome\n);\nWhich is damned slow…\nLet’s try to improve it:\nSELECT te.numero_accession_te AS te_id, te.family_name AS family_name, MIN(distance_to_gene(te_loc.start_position, te_loc.end_position, gene_loc.start_position, gene_loc.end_position)) AS distance \n    FROM transposable_elements te, te_location te_loc, gene_location gene_loc\n    WHERE te.numero_accession_te = te_loc.numero_accession_te\n    AND te_loc.numero_chromosome = gene_loc.numero_chromosome\n    GROUP BY te.numero_accession_te, te.family_name\n;\nTo copy the result in a file:\n\\copy (\n    SELECT te.numero_accession_te AS te_id, te.family_name AS family_name, MIN(distance_to_gene(te_loc.start_position, te_loc.end_position, gene_loc.start_position, gene_loc.end_position)) AS distance \n    FROM transposable_elements te, te_location te_loc, gene_location gene_loc\n    WHERE te.numero_accession_te = te_loc.numero_accession_te\n    AND te_loc.numero_chromosome = gene_loc.numero_chromosome\n    GROUP BY te.numero_accession_te, te.family_name\n) TO './data/out/tmp/te_gene_distance.csv' DELIMITER ';' CSV HEADER;\nte_id;family_name;distance\nFBti0063377;INE-1;0\nFBti0019195;H;264\nFBti0060947;invader2;10022\nFBti0019160;F;12368\nFBti0062368;3S18;0\nFBti0064014;INE-1;1375\nFBti0060604;1360;0\nFBti0060124;INE-1;0\nFBti0020235;R1A1;8134\n\n\nCode\nte_gene_distance &lt;- read.csv(\"../../data/out/tmp/te_gene_distance.csv\", sep=\";\", header=TRUE)\nhead(te_gene_distance)\n\n\n        te_id family_name distance\n1 FBti0063377       INE-1        0\n2 FBti0019195           H      264\n3 FBti0060947    invader2    10022\n4 FBti0019160           F    12368\n5 FBti0062368        3S18        0\n6 FBti0064014       INE-1     1375\n\n\nPlot boxplots for our three families of interests:\n\n\nCode\nte_gene_distance_ours &lt;- te_gene_distance %&gt;% filter(family_name %in% c(\"HMS-Beagle\", \"BS\", \"hopper\"))\n\n\n\n\nCode\nggplot(te_gene_distance_ours, aes(x=family_name, y=distance)) + geom_boxplot() +\n  ggtitle(\"Distance between TE and nearest gene for our three TE families\") +\n    xlab(\"TE family\") + ylab(\"Distance (bp)\")\n\n\n\n\n\n\\(H_0\\): \\(\\mu_1 = \\mu_2 = \\mu_3\\)\n\\(H_1\\): \\(\\exists i, j: \\mu_i \\neq \\mu_j\\)\n\n\nCode\nanova(lm(distance ~ family_name, data=te_gene_distance_ours))\n\n\nAnalysis of Variance Table\n\nResponse: distance\n            Df     Sum Sq   Mean Sq F value   Pr(&gt;F)   \nfamily_name  2 1.7863e+09 893130911   5.552 0.005379 **\nResiduals   87 1.3995e+10 160866894                    \n---\nSignif. codes:  0 '***' 0.001 '**' 0.01 '*' 0.05 '.' 0.1 ' ' 1\n\n\np-value below \\(\\alpha = 0.05\\), we can reject the null hypothesis. There seems to be TE families that are closer to genes than others.\nI should maybe apply a correction for multiple testing (Bonferroni?)."
  },
  {
    "objectID": "notebooks/te-position-bias.html#is-there-a-relation-between-te-copy-conservation-and-distance-to-closest-gene",
    "href": "notebooks/te-position-bias.html#is-there-a-relation-between-te-copy-conservation-and-distance-to-closest-gene",
    "title": "7  Is there a detectable bias in Transposable Elements positioning ?",
    "section": "7.3 Is there a relation between TE copy conservation and distance to closest gene?",
    "text": "7.3 Is there a relation between TE copy conservation and distance to closest gene?\nLet’s retrieve the table from our database:\n\\copy (\n    SELECT te.numero_accession_te AS te_id, te.family_name AS family_name, family.family_class, MIN(distance_to_gene(te_loc.start_position, te_loc.end_position, gene_loc.start_position, gene_loc.end_position)) AS distance, pident, coverage\n    FROM transposable_elements te, te_location te_loc, gene_location gene_loc, blast_hits blast, families family\n    WHERE te.numero_accession_te = te_loc.numero_accession_te\n    AND family.family_name = te.family_name\n    AND te_loc.numero_chromosome = gene_loc.numero_chromosome\n    AND te.numero_accession_te = blast.numero_accession_te2\n    GROUP BY te.numero_accession_te, te.family_name, family.family_class, pident, coverage\n) TO './data/out/tmp/te_gene_distance_blast.csv' DELIMITER ';' CSV HEADER;\nCOPY 2230\n\n\nCode\nte_gene_distance_blast &lt;- read.csv(\"../../data/out/tmp/te_gene_distance_blast.csv\", sep=\";\", header=TRUE)\nhead(te_gene_distance_blast)\n\n\n        te_id family_name family_class distance pident coverage\n1 FBti0015567      Tirant          LTR        0   97.2   0.3340\n2 FBti0018861        17.6          LTR        0   99.0   0.0687\n3 FBti0018862        17.6          LTR      988   99.6   0.9740\n4 FBti0018865         297          LTR        0   97.8   1.0000\n5 FBti0018866         297          LTR        0   99.1   0.9980\n6 FBti0018867         297          LTR        0   98.1   1.0000\n\n\n\n\nCode\nggplot(te_gene_distance_blast, aes(y=pident, x=distance, col=family_class)) + geom_point() +\n  ggtitle(\"Identity score against nearest gene distance\") +\n    xlab(\"Distance (bp)\") + ylab(\"Blast pident\") + \n    # Do not display legend for family_name\n    theme(legend.position=\"none\")\n\n\n\n\n\nCode\n# ggsave(\"../../data/out/figures/te_gene_distance_blast_pident.pdf\", width=10, height=6)\n\n\nLet try again with coverage metric\n\n\nCode\nggplot(te_gene_distance_blast, aes(y=coverage, x=distance, col=family_class)) + geom_point() +\n  ggtitle(\"Coverage score against nearest gene distance\") +\n    ylab(\"Blast coverage\") + xlab(\"Distance (bp)\")\n\n\n\n\n\nCode\n# ggsave(\"../media/plots/te_gene_distance_blast_coverage.pdf\", width=10, height=6)\n\n\nIt seems that there is a lot of NAs in family_class column.\n\n\nCode\nte_gene_distance_blast_filtered &lt;- te_gene_distance_blast %&gt;% filter(is.na(family_class))\nhead(te_gene_distance_blast_filtered)\n\n\n[1] te_id        family_name  family_class distance     pident      \n[6] coverage    \n&lt;0 rows&gt; (or 0-length row.names)\n\n\nNB: this no longer returns a result with below db update.\nHere are the guilty TE families:\ngrep 'NA' ./data/out/db/families.tsv             \nINE-1   NA\nPorto1  NA\nQ       NA\nY       NA\nLet’s fix the family_class column:\nUPDATE families\nSET family_class = 'transposon'\nWHERE family_name = 'INE-1';\nUPDATE families \nSET family_class = 'no-LTR'\nWHERE family_name = 'Porto1';\nFurther bibliography on Q and Y TE families should be done (however, they do not appear in our dataframe, so it remains to be done…)\nTesting if the relation between TE copy conservation and distance to closest gene is significant:\n\n\nCode\nconservation_distance_lm  &lt;- lm(coverage ~ distance, data=te_gene_distance_blast)\nsummary(conservation_distance_lm)\n\n\n\nCall:\nlm(formula = coverage ~ distance, data = te_gene_distance_blast)\n\nResiduals:\n     Min       1Q   Median       3Q      Max \n-0.86607 -0.02447  0.11853  0.11982  0.27461 \n\nCoefficients:\n              Estimate Std. Error t value Pr(&gt;|t|)    \n(Intercept)  8.805e-01  5.235e-03 168.175  &lt; 2e-16 ***\ndistance    -1.385e-06  3.410e-07  -4.061 5.05e-05 ***\n---\nSignif. codes:  0 '***' 0.001 '**' 0.01 '*' 0.05 '.' 0.1 ' ' 1\n\nResidual standard error: 0.2312 on 2228 degrees of freedom\nMultiple R-squared:  0.007349,  Adjusted R-squared:  0.006903 \nF-statistic: 16.49 on 1 and 2228 DF,  p-value: 5.048e-05\n\n\n\n\nCode\nggplot(te_gene_distance_blast, aes(y=coverage, x=distance, col=family_class)) + geom_point() +\n  ggtitle(\"Coverage score against nearest gene distance\") +\n    ylab(\"Blast coverage\") + xlab(\"Distance (bp)\") +\n    geom_smooth(method=lm, se=FALSE)\n\n\n`geom_smooth()` using formula = 'y ~ x'\n\n\n\n\n\nThis seems not to be a good looking model.\nLet’s try to fit a linear model with a quadratic term:\n\n\nCode\nconservation_distance_lm2  &lt;- lm(coverage ~ distance + I(distance^2), data=te_gene_distance_blast)\nsummary(conservation_distance_lm2)\n\n\n\nCall:\nlm(formula = coverage ~ distance + I(distance^2), data = te_gene_distance_blast)\n\nResiduals:\n     Min       1Q   Median       3Q      Max \n-0.86573 -0.02413  0.11887  0.12010  0.28519 \n\nCoefficients:\n                Estimate Std. Error t value Pr(&gt;|t|)    \n(Intercept)    8.801e-01  5.524e-03 159.319   &lt;2e-16 ***\ndistance      -1.226e-06  8.950e-07  -1.370    0.171    \nI(distance^2) -2.236e-12  1.165e-11  -0.192    0.848    \n---\nSignif. codes:  0 '***' 0.001 '**' 0.01 '*' 0.05 '.' 0.1 ' ' 1\n\nResidual standard error: 0.2312 on 2227 degrees of freedom\nMultiple R-squared:  0.007365,  Adjusted R-squared:  0.006474 \nF-statistic: 8.262 on 2 and 2227 DF,  p-value: 0.0002661\n\n\n\\(R^2 = 0.006474\\), which is not very good, even if \\(p\\)-value, below \\(0.0003\\) seems to state that there is a relation between coverage and distance squared.\nNot very convincing.\nLet’s plot coverage histogram with distances bins of 1000bp:\n\n\nCode\n# | fig-label: distance-hist\n# | fig-caption: Histogram of distance to nearest gene distribution \nggplot(te_gene_distance, aes(x=distance)) + geom_histogram(binwidth = 1000, fill = primarycolor) +\n    ggtitle(\"Histogram of distance to nearest gene\") +\n    xlab(\"Distance (bp)\") + ylab(\"Count\")\n\n\n\n\n\nCode\nggsave(\"../media/plots/blast-distance-hist.pdf\", width=6, height=4)\n\n\n\n\nCode\n# | fig-label: coverage-hist\n# | fig-caption: Histogram of coverage distribution\nggplot(te_gene_distance_blast, aes(x=coverage)) + geom_histogram(binwidth=0.025, fill = primarycolor) +\n    ggtitle(\"Histogram of coverage\") +\n    xlab(\"Coverage\") + ylab(\"Count\")\n\n\n\n\n\nCode\n# ggsave(\"../media/plots/blast-coverage-hist.pdf\", width=6, height=4)\n\n\nBoth distributions looks quite similar.\nMost TE copies are located close to a gene - less than 1000bp away.\nMost TE copies have coverage score. The less the coverage, the less copies there are."
  },
  {
    "objectID": "notebooks/te-position-bias.html#correlation-coefficient-between-the-two-sliding-window-density-curves",
    "href": "notebooks/te-position-bias.html#correlation-coefficient-between-the-two-sliding-window-density-curves",
    "title": "7  Is there a detectable bias in Transposable Elements positioning ?",
    "section": "7.4 Correlation coefficient between the two sliding window density curves",
    "text": "7.4 Correlation coefficient between the two sliding window density curves\n(on 2023-04-30)\n\n\nCode\ncor(region_te_densities$density, region_gene_densities$density, method=\"pearson\")\n\n\n[1] 0.05177041\n\n\nThe correlation coefficient is negligible.\n\n\nCode\ncor(te_gene_distance_blast$coverage, te_gene_distance_blast$distance)\n\n\n[1] -0.08572497\n\n\nHere again, the correlation coefficient is negligible."
  },
  {
    "objectID": "notebooks/te-position-bias.html#does-the-orientation-affect-these-metrics",
    "href": "notebooks/te-position-bias.html#does-the-orientation-affect-these-metrics",
    "title": "7  Is there a detectable bias in Transposable Elements positioning ?",
    "section": "7.5 Does the orientation affect these metrics?",
    "text": "7.5 Does the orientation affect these metrics?\n(On 2023-05-04)\nFrom now on, we did not take into account the orientation of the TE copy and gene.\nLet’s fix this!\nQuery the same data, but with orientation taken into account:\n\\copy (\n    SELECT te.numero_accession_te AS te_id, te.family_name AS family_name, family.family_class, MIN(distance_to_gene(te_loc.start_position, te_loc.end_position, gene_loc.start_position, gene_loc.end_position)) AS distance, pident, coverage\n    FROM transposable_elements te, te_location te_loc, gene_location gene_loc, blast_hits blast, families family\n    WHERE te.numero_accession_te = te_loc.numero_accession_te\n    AND family.family_name = te.family_name\n    AND te_loc.numero_chromosome = gene_loc.numero_chromosome\n    AND te.numero_accession_te = blast.numero_accession_te2\n    AND te_loc.orientation = gene_loc.orientation\n    GROUP BY te.numero_accession_te, te.family_name, family.family_class, pident, coverage\n) TO './data/out/tmp/te_gene_distance_blast_same_orientation.csv' DELIMITER ';' CSV HEADER;\nCOPY 2230\n\n\nCode\nte_gene_distance_blast_orientation &lt;- read.csv(\"../../data/out/tmp/te_gene_distance_blast_same_orientation.csv\", sep=\";\", header=TRUE)\nkable(head(te_gene_distance_blast_orientation))\n\n\n\n\n\nte_id\nfamily_name\nfamily_class\ndistance\npident\ncoverage\n\n\n\n\nFBti0019195\nH\ntransposon\n9970\n100.0\n1.0000\n\n\nFBti0019040\nopus\nLTR\n0\n100.0\n0.0687\n\n\nFBti0020129\nroo\nLTR\n0\n99.8\n1.0000\n\n\nFBti0059889\nMax\nLTR\n155135\n76.9\n0.8060\n\n\nFBti0020190\nMcClintock\nLTR\n16281\n100.0\n0.0771\n\n\nFBti0061788\nG\nno-LTR\n33078\n87.2\n0.4570\n\n\n\n\n\n\n\nCode\nggplot(te_gene_distance_blast_orientation, aes(y=pident, x=distance, col=family_class)) + geom_point() +\n  ggtitle(\"Identity score against nearest gene distance (same orientation)\") +\n    xlab(\"Distance (bp)\") + ylab(\"Blast pident\") + \n    theme(legend.position=\"none\")\n\n\n\n\n\nCode\nggsave(\"../media/plots/te_gene_distance_blast_coverage_same_orientation.pdf\", width=6, height=4)\n\n\n\n\n\n\nKaminker, Joshua S., Casey M. Bergman, Brent Kronmiller, Joseph Carlson, Robert Svirskas, Sandeep Patel, Erwin Frise, et al. 2002. “The Transposable Elements of the Drosophila Melanogaster Euchromatin: A Genomics Perspective.” Genome Biology 3 (12): research0084.1. https://doi.org/10.1186/gb-2002-3-12-research0084.\n\n\nSilva, J. C., S. A. Shabalina, D. G. Harris, J. L. Spouge, and A. S. Kondrashov. 2003. “Conserved Fragments of Transposable Elements in Intergenic Regions: Evidence for Widespread Recruitment of MIR- and L2-Derived Sequences Within the Mouse and Human Genomes.” Genetics Research 82 (1): 1–18. https://doi.org/10.1017/S0016672303006268."
  },
  {
    "objectID": "notebooks/te-database-fasta.html",
    "href": "notebooks/te-database-fasta.html",
    "title": "8  Let’s add FASTA sequences to our database",
    "section": "",
    "text": "9 Technical possibilities"
  },
  {
    "objectID": "notebooks/te-database-fasta.html#data-inclusion",
    "href": "notebooks/te-database-fasta.html#data-inclusion",
    "title": "8  Let’s add FASTA sequences to our database",
    "section": "9.1 Data inclusion",
    "text": "9.1 Data inclusion\nLet’s do a copy to avoid messing with the original database:\ntoday () {\n    date +%Y-%m-%d\n}\npg_dump -d tenacious &gt; ./database/dumps/tenacious_$(today).sql\nCREATE DATABASE tenacious_fasta;\ngrant all on database tenacious_fasta to sortion;\npsql -d tenacious_fasta -f ./database/dumps/tenacious_2023-05-01.sql\nCreate a table for FASTA files:\nCREATE TABLE IF NOT EXISTS te_sequences (\n    te_id VARCHAR(20) NOT NULL,\n    te_sequence BYTEA NOT NULL,\n    CONSTRAINT fk_te_id\n        FOREIGN KEY (te_id)\n        REFERENCES transposable_elements (numero_accession_te)\n);\nData insertion\nCreate a function.\ncreate or replace function bytea_import(p_path text, p_result out bytea) \n                   language plpgsql as $$\ndeclare\n  l_oid oid;\nbegin\n  select lo_import(p_path) into l_oid;\n  select lo_get(l_oid) INTO p_result;\n  perform lo_unlink(l_oid);\nend;$$;\n-- Insertion\nINSERT INTO te_sequences (te_id, te_sequence)\nVALUES ('AF533772', bytea_import('./data/references/1360.txt'));\nALTER ROLE postgres SUPERUSER;\nGRANT ALL PRIVILEGES ON DATABASE tenacious_fasta to postgres;\ngrant pg_read_server_files to postgres with admin option;"
  },
  {
    "objectID": "notebooks/te-database-fasta.html#references",
    "href": "notebooks/te-database-fasta.html#references",
    "title": "8  Let’s add FASTA sequences to our database",
    "section": "9.2 References",
    "text": "9.2 References\n\nHow to insert (file) data into a PostgreSQL bytea column? https://dba.stackexchange.com/a/2962"
  },
  {
    "objectID": "notebooks/querying_tenacious_database.html#queries",
    "href": "notebooks/querying_tenacious_database.html#queries",
    "title": "9  Let us query our database",
    "section": "9.1 Queries",
    "text": "9.1 Queries\n\n9.1.1 Sélectionner les TE HMS-Beagle à moins de 10000 bases d’un gène sur le chromosome 2L\nSELECT *\nFROM transposable_elements te\nINNER JOIN te_location te_loc\nON te.numero_accession_te = te_loc.numero_accession_te\nWHERE  te_loc.numero_chromosome LIKE  '2L' \nAND te.family_name = 'HMS-Beagle'\nAND 10000 &gt; ANY (\n    SELECT ABS(te_loc.start_position - gene_loc.end_position) \n    FROM genes gene\n   INNER  JOIN gene_location gene_loc\n   ON gene_loc.numero_accession_gene = gene.numero_accession_gene \n   WHERE gene_loc.numero_chromosome = te_loc.numero_chromosome\n);\n\n\n9.1.2 Sélectionner les TE inclus dans un gène\nSELECT te.numero_accession_te\nFROM transposable_elements te\nINNER JOIN te_location te_loc\nON te.numero_accession_te = te_loc.numero_accession_te\nWHERE\n te.numero_accession_te IN (\n    SELECT te.numero_accession_te\n    FROM genes gene\n   INNER  JOIN gene_location gene_loc\n   ON gene_loc.numero_accession_gene = gene.numero_accession_gene \n   WHERE gene_loc.numero_chromosome = te_loc.numero_chromosome\n   AND te_loc.start_position &gt; gene_loc.start_position AND gene_loc.end_position &gt; te_loc.end_position\n);\n(424 lignes)\n\n\n9.1.3 Compter le nombre de TE de la famille HMS-Beagle sur le bras L du chromosome 2\nselect count(*) \nfrom te_location  te_loc\ninner join transposable_elements te\n    on te.numero_accession_te = te_loc.numero_accession_te\nwhere te.family_name = 'HMS-Beagle'\nand numero_chromosome = '2L'; \n\n\n9.1.4 Compter le nombre de TE par chromosome\nSELECT te_loc.numero_chromosome,  count(*)\nFROM transposable_elements te\nINNER JOIN te_location te_loc\n ON te_loc.numero_accession_te = te.numero_accession_te\nGROUP BY te_loc.numero_chromosome;\n numero_chromosome | count \n-------------------+-------\n 4                 |   541\n 2R                |  1358\n X                 |   887\n 3R                |   631\n 3L                |  1056\n 2L                |   919\n(6 lignes)\nWe hopefully get the same result as the one from awk based count in starting blocks analyzis.\n\n\n9.1.5 Select sufficiently preserved TEs preserved TEs\nSELECT count(*)\nFROM transposable_elements te\nINNER JOIN blast_hits \nON blast_hits.numero_accession_te1 = te.numero_accession_te\nWHERE coverage &gt; 0.8;\nhttps://www.postgresql.org/docs/current/functions-math.html\n\n\n9.1.6 Moyenne de meilleurs pident pour les copies inclues dans un gène\nSELECT AVG(pident)\nFROM blast_hits \nINNER JOIN te_location te_loc\nON blast_hits.numero_accession_te2 = te_loc.numero_accession_te\nWHERE te_loc.numero_accession_te IN (\n    SELECT te_loc.numero_accession_te\n    FROM gene_location gene_loc\n    WHERE gene_loc.numero_chromosome = te_loc.numero_chromosome\n    AND te_loc.start_position &gt; gene_loc.start_position AND gene_loc.end_position &gt; te_loc.end_position\n);\n       avg        \n------------------\n 93.5418078104655\n(1 row)\nSELECT AVG(pident)\nFROM blast_hits \nINNER JOIN te_location te_loc\nON blast_hits.numero_accession_te2 = te_loc.numero_accession_te\nWHERE te_loc.numero_accession_te NOT IN (\n    SELECT te_loc.numero_accession_te\n    FROM gene_location gene_loc\n    WHERE gene_loc.numero_chromosome = te_loc.numero_chromosome\n    AND te_loc.start_position &gt; gene_loc.start_position AND gene_loc.end_position &gt; te_loc.end_position\n);\n        avg        \n-------------------\n 92.68699325741949\n(1 row)\nAt first sight, it seems that the average identity percentage does not differ strongly from TE included in genes among others."
  },
  {
    "objectID": "notebooks/querying_tenacious_database.html#how-many-transposable-elements-does-not-have-a-blast-hit",
    "href": "notebooks/querying_tenacious_database.html#how-many-transposable-elements-does-not-have-a-blast-hit",
    "title": "9  Let us query our database",
    "section": "9.2 How many transposable elements does not have a blast hit?",
    "text": "9.2 How many transposable elements does not have a blast hit?\nSELECT count(te.numero_accession_te) FROM transposable_elements te, blast_hits b \nWHERE b.numero_accession_te1 = te.numero_accession_te OR b.numero_accession_te2 = te.numero_accession_te;\n4492\nThat seems a huge number (It may be due to transposable elements filtered out in blast hits analysis, because they diverged too much from the reference ?)."
  },
  {
    "objectID": "notebooks/phylogeny_of_te_copies.html#data",
    "href": "notebooks/phylogeny_of_te_copies.html#data",
    "title": "10  A phylogeny of Transposable Elements copies",
    "section": "10.1 Data",
    "text": "10.1 Data\n\n./data/out/align/HMS-Beagle-all.fasta: All TE copies which belong to HMS-Beagle family."
  },
  {
    "objectID": "notebooks/phylogeny_of_te_copies.html#methods",
    "href": "notebooks/phylogeny_of_te_copies.html#methods",
    "title": "10  A phylogeny of Transposable Elements copies",
    "section": "10.2 Methods",
    "text": "10.2 Methods\nWe will use quicktree to draw the phylogenetic tree.\nThis requires alignment in either Stockolm format of Phylip matrix.\nInstall some tools:\nsudo dnf install hmmer\nconda install -c bioconda phylip\nCompile and install quicktree.\nquicktree gets phylip alignment format as input, we will generate them using MUSCLE:\nmuscle -align ./data/out/align/HMS-Beagle-all.fasta -output ./data/out/phylo/HMS-Beagle-all.phy\nUnfortunately, this program runs out of memory, on my 8GB RAM laptop.\nLet’s try using clustal omega:\nclustalo --auto -i ./data/out/align/HMS-Beagle-all.fasta -o ./data/out/phylo/HMS-Beagle-all.phy\nNo luck, it also runs out of memory.\n\n\n\nI used MUSCLE at https://www.ebi.ac.uk and it returned a result, in Phylip Sequential format.\nI tried to use msaconverter to convert from phylip-sequential to stockholm format, but it failed with:\nValueError: Duplicate record identifier: FBti006054\nIt is strange, because, no such record exists in the source fasta file, the sequence IDs seems truncated in the EBI output file/\ngrep \"FBti006054\" ./data/out/align/HMS-Beagle-all.fast\n&gt;FBti0060545 type=transposable_element; loc=2L:22392259..22392702; name=HMS-Beagle{}2484; dbxref=FlyBase_Annotation_IDs:TE60545,FlyBase:FBti0060545; MD5=260ac917e58687a23ce95d258800a7c3; length=444; release=r6.38; species=Dmel; \n&gt;FBti0060547 type=transposable_element; loc=2L:22394821..22395181; name=HMS-Beagle{}2486; dbxref=FlyBase_Annotation_IDs:TE60547,FlyBase:FBti0060547; MD5=c5f59fbf922a908d6291e59023620de6; length=361; release=r6.38; species=Dmel; \n&gt;FBti0060549 type=transposable_element; loc=2L:22408490..22408847; name=HMS-Beagle{}2488; dbxref=FlyBase_Annotation_IDs:TE60549,FlyBase:FBti0060549; MD5=46a99f341d58fde1d7378cf3982c427a; length=358; release=r6.38; species=Dmel; \nI also tried to use https://NGphylogeny.fr, with no results, for now."
  },
  {
    "objectID": "notebooks/te_copies_length_distribution.html#te-length-distribution",
    "href": "notebooks/te_copies_length_distribution.html#te-length-distribution",
    "title": "11  TE length distribution",
    "section": "11.1 TE Length distribution",
    "text": "11.1 TE Length distribution\nRetrieve TE lengths:\n\\copy (\nSELECT te.numero_accession_te as te_id,\n    te.te_length,   \n    family.family_class as te_class,\n    family.family_name as te_family\nFROM transposable_elements te,\n    families family\nWHERE te.family_name = family.family_name\n) TO './data/out/tmp/te_lengths.tsv' WITH (FORMAT 'csv', DELIMITER E'\\t', HEADER TRUE);\nCOPY 5501\n\nlibrary(tidyverse)\nlibrary(knitr)\nprimarycolor &lt;- \"#4365e2\"\n\n\nte_lengths &lt;- read_tsv('../../data/out/tmp/te_lengths.tsv')\n\nRows: 5501 Columns: 4\n── Column specification ────────────────────────────────────────────────────────\nDelimiter: \"\\t\"\nchr (3): te_id, te_class, te_family\ndbl (1): te_length\n\nℹ Use `spec()` to retrieve the full column specification for this data.\nℹ Specify the column types or set `show_col_types = FALSE` to quiet this message.\n\nkable(head(te_lengths))\n\n\n\n\nte_id\nte_length\nte_class\nte_family\n\n\n\n\nFBti0019256\n4145\nLTR\ninvader2\n\n\nFBti0019258\n2483\nLTR\nfrogger\n\n\nFBti0019259\n215\nLTR\ngypsy6\n\n\nFBti0019877\n213\nno-LTR\nG4\n\n\nFBti0019260\n180\nno-LTR\nDoc3\n\n\nFBti0019261\n1510\nno-LTR\nX\n\n\n\n\n\n\nggplot(te_lengths, aes(x = te_length)) +\n  geom_histogram(bins=250) +\n  labs(x = 'TE length (bp)', y = 'Count')"
  },
  {
    "objectID": "notebooks/te_copies_length_distribution.html#length-ratio-to-the-reference",
    "href": "notebooks/te_copies_length_distribution.html#length-ratio-to-the-reference",
    "title": "11  TE length distribution",
    "section": "11.2 Length ratio to the reference",
    "text": "11.2 Length ratio to the reference\nInspired from Kaminker et al. (2002), we can compute ratio of TE length to the length of the reference.\n\\copy (\n  SELECT copy.numero_accession_te as te_id, copy.family_name, family.family_class, copy.te_length as copy_length, ref.te_length as ref_length\n  FROM transposable_elements copy,\n  transposable_elements ref, \n  families family\n  WHERE copy.family_name = family.family_name\n  AND copy.family_name = ref.family_name\n  AND ref.reference\n) TO './data/out/tmp/te_lengths_ratio.tsv' WITH (FORMAT 'csv', DELIMITER E'\\t', HEADER TRUE);\nCOPY 5199\n\nte_lengths_ratio &lt;- read_tsv('../../data/out/tmp/te_lengths_ratio.tsv')\n\nRows: 5199 Columns: 5\n── Column specification ────────────────────────────────────────────────────────\nDelimiter: \"\\t\"\nchr (3): te_id, family_name, family_class\ndbl (2): copy_length, ref_length\n\nℹ Use `spec()` to retrieve the full column specification for this data.\nℹ Specify the column types or set `show_col_types = FALSE` to quiet this message.\n\nkable(head(te_lengths_ratio))\n\n\n\n\nte_id\nfamily_name\nfamily_class\ncopy_length\nref_length\n\n\n\n\nFBti0019256\ninvader2\nLTR\n4145\n5124\n\n\nFBti0019258\nfrogger\nLTR\n2483\n2483\n\n\nFBti0019259\ngypsy6\nLTR\n215\n7826\n\n\nFBti0019877\nG4\nno-LTR\n213\n3856\n\n\nFBti0019261\nX\nno-LTR\n1510\n4740\n\n\nFBti0019880\nF\nno-LTR\n4302\n3520\n\n\n\n\n\n\nggplot(te_lengths_ratio, aes(x = copy_length / ref_length)) +\n  geom_histogram(bins=100, fill=primarycolor) +\n  labs(x = 'TE length / reference length', y = 'Count') +\n  ggtitle(\"TE copies and reference length ratio\") +\n  scale_x_continuous(limits = c(0, 2)) \n\nWarning: Removed 91 rows containing non-finite values (`stat_bin()`).\n\n\nWarning: Removed 2 rows containing missing values (`geom_bar()`).\n\n\n\n\nggsave('../media/plots/te_lengths_ratio.pdf', width = 4, height = 3)\n\nWarning: Removed 91 rows containing non-finite values (`stat_bin()`).\nRemoved 2 rows containing missing values (`geom_bar()`).\n\n\n\n\n\n\nKaminker, Joshua S., Casey M. Bergman, Brent Kronmiller, Joseph Carlson, Robert Svirskas, Sandeep Patel, Erwin Frise, et al. 2002. “The Transposable Elements of the Drosophila Melanogaster Euchromatin: A Genomics Perspective.” Genome Biology 3 (12): research0084.1. https://doi.org/10.1186/gb-2002-3-12-research0084."
  },
  {
    "objectID": "references.html",
    "href": "references.html",
    "title": "References",
    "section": "",
    "text": "Kaminker, Joshua S., Casey M. Bergman, Brent Kronmiller, Joseph Carlson,\nRobert Svirskas, Sandeep Patel, Erwin Frise, et al. 2002. “The\nTransposable Elements of the Drosophila Melanogaster\nEuchromatin: A Genomics Perspective.” Genome Biology 3\n(12): research0084.1. https://doi.org/10.1186/gb-2002-3-12-research0084.\n\n\nSilva, J. C., S. A. Shabalina, D. G. Harris, J. L. Spouge, and A. S.\nKondrashov. 2003. “Conserved Fragments of Transposable Elements in\nIntergenic Regions: Evidence for Widespread Recruitment of\nMIR- and L2-Derived Sequences Within the Mouse\nand Human Genomes.” Genetics Research 82 (1): 1–18. https://doi.org/10.1017/S0016672303006268."
  }
]