<mxfile host="Electron" modified="2023-04-18T13:49:45.241Z" agent="Mozilla/5.0 (X11; Linux x86_64) AppleWebKit/537.36 (KHTML, like Gecko) draw.io/21.1.2 Chrome/106.0.5249.199 Electron/21.4.3 Safari/537.36" etag="z35zp8XIQ16ifk63c-SY" version="21.1.2" type="device">
  <diagram name="Page-1" id="ibBOGvJEVJQNUEsknBfj">
    <mxGraphModel dx="1024" dy="599" grid="1" gridSize="10" guides="1" tooltips="1" connect="1" arrows="1" fold="1" page="1" pageScale="1" pageWidth="850" pageHeight="1100" math="0" shadow="0">
      <root>
        <mxCell id="0" />
        <mxCell id="1" parent="0" />
        <mxCell id="qeC84665mKHrWZMbgNoI-5" value="Chromosome" style="swimlane;childLayout=stackLayout;horizontal=1;startSize=50;horizontalStack=0;rounded=1;fontSize=14;fontStyle=0;strokeWidth=2;resizeParent=0;resizeLast=1;shadow=0;dashed=0;align=center;arcSize=4;whiteSpace=wrap;html=1;" parent="1" vertex="1">
          <mxGeometry x="20" y="340" width="160" height="120" as="geometry" />
        </mxCell>
        <mxCell id="qeC84665mKHrWZMbgNoI-6" value="Numéro&lt;br&gt;Taille" style="align=left;strokeColor=none;fillColor=none;spacingLeft=4;fontSize=12;verticalAlign=top;resizable=0;rotatable=0;part=1;html=1;" parent="qeC84665mKHrWZMbgNoI-5" vertex="1">
          <mxGeometry y="50" width="160" height="70" as="geometry" />
        </mxCell>
        <mxCell id="qeC84665mKHrWZMbgNoI-7" value="Copie" style="swimlane;childLayout=stackLayout;horizontal=1;startSize=50;horizontalStack=0;rounded=1;fontSize=14;fontStyle=0;strokeWidth=2;resizeParent=0;resizeLast=1;shadow=0;dashed=0;align=center;arcSize=4;whiteSpace=wrap;html=1;" parent="1" vertex="1">
          <mxGeometry x="360" y="340" width="160" height="120" as="geometry" />
        </mxCell>
        <mxCell id="qeC84665mKHrWZMbgNoI-8" value="NuméroAccession&lt;br&gt;Taille" style="align=left;strokeColor=none;fillColor=none;spacingLeft=4;fontSize=12;verticalAlign=top;resizable=0;rotatable=0;part=1;html=1;" parent="qeC84665mKHrWZMbgNoI-7" vertex="1">
          <mxGeometry y="50" width="160" height="70" as="geometry" />
        </mxCell>
        <mxCell id="qeC84665mKHrWZMbgNoI-9" value="FamilleET" style="swimlane;childLayout=stackLayout;horizontal=1;startSize=50;horizontalStack=0;rounded=1;fontSize=14;fontStyle=0;strokeWidth=2;resizeParent=0;resizeLast=1;shadow=0;dashed=0;align=center;arcSize=4;whiteSpace=wrap;html=1;" parent="1" vertex="1">
          <mxGeometry x="720" y="350" width="160" height="120" as="geometry" />
        </mxCell>
        <mxCell id="qeC84665mKHrWZMbgNoI-10" value="Nom&lt;br&gt;NombreDeCopie&lt;br&gt;Classification" style="align=left;strokeColor=none;fillColor=none;spacingLeft=4;fontSize=12;verticalAlign=top;resizable=0;rotatable=0;part=1;html=1;" parent="qeC84665mKHrWZMbgNoI-9" vertex="1">
          <mxGeometry y="50" width="160" height="70" as="geometry" />
        </mxCell>
        <mxCell id="qeC84665mKHrWZMbgNoI-11" style="edgeStyle=orthogonalEdgeStyle;rounded=0;orthogonalLoop=1;jettySize=auto;html=1;endArrow=none;endFill=0;entryX=-0.002;entryY=0.361;entryDx=0;entryDy=0;entryPerimeter=0;" parent="1" target="qeC84665mKHrWZMbgNoI-10" edge="1">
          <mxGeometry relative="1" as="geometry">
            <mxPoint x="520" y="424" as="sourcePoint" />
            <mxPoint x="700" y="445" as="targetPoint" />
          </mxGeometry>
        </mxCell>
        <mxCell id="qeC84665mKHrWZMbgNoI-15" value="0,1" style="edgeLabel;html=1;align=center;verticalAlign=middle;resizable=0;points=[];" parent="qeC84665mKHrWZMbgNoI-11" vertex="1" connectable="0">
          <mxGeometry x="-0.8115" y="-1" relative="1" as="geometry">
            <mxPoint x="-5" y="-2" as="offset" />
          </mxGeometry>
        </mxCell>
        <mxCell id="qeC84665mKHrWZMbgNoI-16" value="1,n" style="edgeLabel;html=1;align=center;verticalAlign=middle;resizable=0;points=[];" parent="qeC84665mKHrWZMbgNoI-11" vertex="1" connectable="0">
          <mxGeometry x="0.8431" y="-1" relative="1" as="geometry">
            <mxPoint x="-2" y="-4" as="offset" />
          </mxGeometry>
        </mxCell>
        <mxCell id="qeC84665mKHrWZMbgNoI-12" style="edgeStyle=orthogonalEdgeStyle;rounded=0;orthogonalLoop=1;jettySize=auto;html=1;entryX=0;entryY=0.5;entryDx=0;entryDy=0;endArrow=none;endFill=0;" parent="1" source="qeC84665mKHrWZMbgNoI-20" target="qeC84665mKHrWZMbgNoI-8" edge="1">
          <mxGeometry relative="1" as="geometry" />
        </mxCell>
        <mxCell id="qeC84665mKHrWZMbgNoI-14" value="0,1" style="edgeLabel;html=1;align=center;verticalAlign=middle;resizable=0;points=[];" parent="qeC84665mKHrWZMbgNoI-12" vertex="1" connectable="0">
          <mxGeometry x="0.7734" relative="1" as="geometry">
            <mxPoint x="-5" y="-15" as="offset" />
          </mxGeometry>
        </mxCell>
        <mxCell id="qeC84665mKHrWZMbgNoI-21" value="" style="edgeStyle=orthogonalEdgeStyle;rounded=0;orthogonalLoop=1;jettySize=auto;html=1;entryX=0;entryY=0.5;entryDx=0;entryDy=0;endArrow=none;endFill=0;" parent="1" source="qeC84665mKHrWZMbgNoI-6" target="qeC84665mKHrWZMbgNoI-20" edge="1">
          <mxGeometry relative="1" as="geometry">
            <mxPoint x="180" y="425" as="sourcePoint" />
            <mxPoint x="360" y="425" as="targetPoint" />
          </mxGeometry>
        </mxCell>
        <mxCell id="qeC84665mKHrWZMbgNoI-22" value="0,n" style="edgeLabel;html=1;align=center;verticalAlign=middle;resizable=0;points=[];" parent="qeC84665mKHrWZMbgNoI-21" vertex="1" connectable="0">
          <mxGeometry x="-0.7885" y="2" relative="1" as="geometry">
            <mxPoint x="6" y="2" as="offset" />
          </mxGeometry>
        </mxCell>
        <mxCell id="qeC84665mKHrWZMbgNoI-20" value="&lt;u&gt;localise&lt;/u&gt;&lt;br&gt;&lt;div style=&quot;text-align: left;&quot;&gt;&lt;span style=&quot;background-color: initial;&quot;&gt;début&lt;/span&gt;&lt;/div&gt;&lt;div style=&quot;text-align: left;&quot;&gt;&lt;span style=&quot;background-color: initial;&quot;&gt;fin&lt;/span&gt;&lt;/div&gt;&lt;div style=&quot;text-align: left;&quot;&gt;&lt;span style=&quot;background-color: initial;&quot;&gt;orienation&lt;/span&gt;&lt;/div&gt;" style="ellipse;whiteSpace=wrap;html=1;" parent="1" vertex="1">
          <mxGeometry x="210" y="390" width="120" height="70" as="geometry" />
        </mxCell>
        <mxCell id="qeC84665mKHrWZMbgNoI-24" value="&lt;div style=&quot;text-align: left;&quot;&gt;appartient&lt;/div&gt;" style="ellipse;whiteSpace=wrap;html=1;" parent="1" vertex="1">
          <mxGeometry x="570" y="390" width="120" height="70" as="geometry" />
        </mxCell>
        <mxCell id="qeC84665mKHrWZMbgNoI-25" value="Gene" style="swimlane;childLayout=stackLayout;horizontal=1;startSize=50;horizontalStack=0;rounded=1;fontSize=14;fontStyle=0;strokeWidth=2;resizeParent=0;resizeLast=1;shadow=0;dashed=0;align=center;arcSize=4;whiteSpace=wrap;html=1;" parent="1" vertex="1">
          <mxGeometry x="20" y="610" width="160" height="120" as="geometry" />
        </mxCell>
        <mxCell id="qeC84665mKHrWZMbgNoI-26" value="NuméroAccession&lt;br&gt;Fonction" style="align=left;strokeColor=none;fillColor=none;spacingLeft=4;fontSize=12;verticalAlign=top;resizable=0;rotatable=0;part=1;html=1;" parent="qeC84665mKHrWZMbgNoI-25" vertex="1">
          <mxGeometry y="50" width="160" height="70" as="geometry" />
        </mxCell>
        <mxCell id="qeC84665mKHrWZMbgNoI-29" style="edgeStyle=orthogonalEdgeStyle;rounded=0;orthogonalLoop=1;jettySize=auto;html=1;entryX=0.5;entryY=1;entryDx=0;entryDy=0;endArrow=none;endFill=0;" parent="1" source="qeC84665mKHrWZMbgNoI-28" target="qeC84665mKHrWZMbgNoI-6" edge="1">
          <mxGeometry relative="1" as="geometry" />
        </mxCell>
        <mxCell id="qeC84665mKHrWZMbgNoI-30" style="edgeStyle=orthogonalEdgeStyle;rounded=0;orthogonalLoop=1;jettySize=auto;html=1;entryX=0.5;entryY=0;entryDx=0;entryDy=0;endArrow=none;endFill=0;" parent="1" source="qeC84665mKHrWZMbgNoI-28" target="qeC84665mKHrWZMbgNoI-25" edge="1">
          <mxGeometry relative="1" as="geometry" />
        </mxCell>
        <mxCell id="qeC84665mKHrWZMbgNoI-31" value="0,1" style="edgeLabel;html=1;align=center;verticalAlign=middle;resizable=0;points=[];" parent="qeC84665mKHrWZMbgNoI-30" vertex="1" connectable="0">
          <mxGeometry x="0.3633" relative="1" as="geometry">
            <mxPoint y="2" as="offset" />
          </mxGeometry>
        </mxCell>
        <mxCell id="qeC84665mKHrWZMbgNoI-32" value="0,n" style="edgeLabel;html=1;align=center;verticalAlign=middle;resizable=0;points=[];" parent="qeC84665mKHrWZMbgNoI-30" vertex="1" connectable="0">
          <mxGeometry x="0.3633" relative="1" as="geometry">
            <mxPoint y="-127" as="offset" />
          </mxGeometry>
        </mxCell>
        <mxCell id="qeC84665mKHrWZMbgNoI-28" value="&lt;u&gt;localise&lt;/u&gt;&lt;br&gt;&lt;div style=&quot;text-align: left;&quot;&gt;&lt;span style=&quot;background-color: initial;&quot;&gt;début&lt;/span&gt;&lt;/div&gt;&lt;div style=&quot;text-align: left;&quot;&gt;&lt;span style=&quot;background-color: initial;&quot;&gt;fin&lt;/span&gt;&lt;/div&gt;&lt;div style=&quot;text-align: left;&quot;&gt;&lt;span style=&quot;background-color: initial;&quot;&gt;orienation&lt;/span&gt;&lt;/div&gt;" style="ellipse;whiteSpace=wrap;html=1;" parent="1" vertex="1">
          <mxGeometry x="40" y="500" width="120" height="70" as="geometry" />
        </mxCell>
        <mxCell id="qeC84665mKHrWZMbgNoI-35" style="edgeStyle=orthogonalEdgeStyle;rounded=0;orthogonalLoop=1;jettySize=auto;html=1;entryX=0.75;entryY=1;entryDx=0;entryDy=0;endArrow=none;endFill=0;" parent="1" source="qeC84665mKHrWZMbgNoI-33" target="qeC84665mKHrWZMbgNoI-8" edge="1">
          <mxGeometry relative="1" as="geometry">
            <Array as="points">
              <mxPoint x="470" y="540" />
              <mxPoint x="470" y="540" />
            </Array>
          </mxGeometry>
        </mxCell>
        <mxCell id="8lcplGMbrA73zXB1-V1--2" value="1,n" style="edgeLabel;html=1;align=center;verticalAlign=middle;resizable=0;points=[];" vertex="1" connectable="0" parent="qeC84665mKHrWZMbgNoI-35">
          <mxGeometry x="0.3226" relative="1" as="geometry">
            <mxPoint y="-6" as="offset" />
          </mxGeometry>
        </mxCell>
        <mxCell id="qeC84665mKHrWZMbgNoI-33" value="&lt;u&gt;AnalyseBlast&lt;/u&gt;&lt;br&gt;%ident&lt;br&gt;taille&lt;br&gt;nombre" style="ellipse;whiteSpace=wrap;html=1;" parent="1" vertex="1">
          <mxGeometry x="380" y="530" width="120" height="80" as="geometry" />
        </mxCell>
        <mxCell id="qeC84665mKHrWZMbgNoI-34" style="edgeStyle=orthogonalEdgeStyle;rounded=0;orthogonalLoop=1;jettySize=auto;html=1;endArrow=none;endFill=0;" parent="1" source="qeC84665mKHrWZMbgNoI-8" target="qeC84665mKHrWZMbgNoI-33" edge="1">
          <mxGeometry relative="1" as="geometry">
            <Array as="points">
              <mxPoint x="390" y="490" />
              <mxPoint x="390" y="490" />
            </Array>
          </mxGeometry>
        </mxCell>
        <mxCell id="8lcplGMbrA73zXB1-V1--1" value="1,n" style="edgeLabel;html=1;align=center;verticalAlign=middle;resizable=0;points=[];" vertex="1" connectable="0" parent="qeC84665mKHrWZMbgNoI-34">
          <mxGeometry x="-0.6934" y="1" relative="1" as="geometry">
            <mxPoint y="5" as="offset" />
          </mxGeometry>
        </mxCell>
      </root>
    </mxGraphModel>
  </diagram>
</mxfile>
