<?xml version="1.0" encoding="UTF-8" standalone="no"?>
<!-- Created with Inkscape (http://www.inkscape.org/) -->
<svg xmlns:dc="http://purl.org/dc/elements/1.1/" xmlns:cc="http://creativecommons.org/ns#" xmlns:rdf="http://www.w3.org/1999/02/22-rdf-syntax-ns#" xmlns:svg="http://www.w3.org/2000/svg" xmlns="http://www.w3.org/2000/svg" xmlns:sodipodi="http://sodipodi.sourceforge.net/DTD/sodipodi-0.dtd" xmlns:inkscape="http://www.inkscape.org/namespaces/inkscape" id="svg2" sodipodi:version="0.32" inkscape:version="0.46" width="321.40689" height="297.01099" sodipodi:docbase="C:\Documents and Settings\clint\My Documents\Working\Chinese Zodiac" sodipodi:docname="Snake_wmc.svg" version="1.0" inkscape:output_extension="org.inkscape.output.svg.inkscape">
  <metadata id="metadata7">
    <rdf:RDF>
      <cc:Work rdf:about="">
        <dc:format>image/svg+xml</dc:format>
        <dc:type rdf:resource="http://purl.org/dc/dcmitype/StillImage"/>
      </cc:Work>
    </rdf:RDF>
  </metadata>
  <defs id="defs5">
    <inkscape:perspective sodipodi:type="inkscape:persp3d" inkscape:vp_x="0 : 250 : 1" inkscape:vp_y="0 : 1000 : 0" inkscape:vp_z="500 : 250 : 1" inkscape:persp3d-origin="250 : 166.66667 : 1" id="perspective2670"/>
  </defs>
  <sodipodi:namedview inkscape:window-height="781" inkscape:window-width="749" inkscape:pageshadow="2" inkscape:pageopacity="0.0" borderopacity="1.0" bordercolor="#666666" pagecolor="#ffffff" id="base" inkscape:showpageshadow="false" inkscape:zoom="0.5025987" inkscape:cx="372.04724" inkscape:cy="254.45627" inkscape:window-x="66" inkscape:window-y="66" inkscape:current-layer="svg2" showgrid="false"/>
  <path style="fill:#000000" d="M 135.50304,296.76675 C 121.08558,296.05159 99.761317,294.17008 96.297337,293.30751 C 94.337047,292.81939 89.983687,291.87356 86.623197,291.2057 C 83.262707,290.53783 79.609317,289.36076 78.504557,288.59 C 77.399797,287.81923 75.795927,287.18454 74.940397,287.17956 C 72.136347,287.16326 52.051127,274.60599 43.791247,267.70513 C 29.591537,255.84176 19.347475,243.16792 11.708475,228.0127 C 7.0872746,218.84456 5.6276546,214.44405 2.4571446,200.1214 C 0.76967464,192.49828 0.50572464,188.3867 0.88819464,175.68149 C 1.3150246,161.50322 1.6020446,159.67542 4.8860646,150.22324 C 9.4938846,136.96077 13.822685,128.51296 20.691205,119.37894 C 27.026147,110.9545 43.742367,94.926633 50.202107,91.083273 L 54.514207,88.517683 L 53.766267,91.875553 C 52.489867,97.605833 52.901887,112.50476 54.425167,115.70207 C 57.572887,122.30902 60.044647,126.92986 61.650827,129.21006 C 63.325227,131.58714 63.251187,131.71303 55.961147,138.88419 C 38.843977,155.72224 33.729647,170.34688 37.740987,190.9855 C 40.396637,204.64893 46.691637,217.11819 55.745917,226.64999 C 75.902667,247.8698 105.99381,259.16865 145.68634,260.42148 C 160.73103,260.89633 164.46477,260.68059 174.19958,258.7739 C 187.95361,256.08 198.01465,253.17932 204.85097,249.93685 C 207.70721,248.58215 210.39268,247.47375 210.8187,247.47375 C 212.56212,247.47375 221.45572,240.97583 223.5038,238.20565 C 226.20256,234.55539 227.36421,224.32714 225.7542,218.39109 C 225.13757,216.11763 223.25109,212.1711 221.56199,209.62104 C 219.03536,205.80654 217.09232,204.34639 210.60187,201.38483 C 203.82656,198.29329 197.71541,196.4275 174.5906,190.39028 C 172.56533,189.86155 169.67116,189.42894 168.15909,189.42894 C 166.64702,189.42894 164.60767,188.99961 163.62721,188.47488 C 162.64674,187.95015 155.72915,186.10768 148.2548,184.38051 C 134.45186,181.19093 115.01731,174.95135 113.18809,173.12214 C 112.63544,172.56949 111.41396,172.11733 110.47366,172.11733 C 108.84168,172.11733 100.82298,167.74502 93.282777,162.74376 C 89.411107,160.17576 73.925297,144.84849 69.700577,139.40299 C 66.455227,135.21986 61.305817,125.13566 58.717237,117.89406 C 52.878767,101.56089 53.664117,87.546913 61.185557,73.848493 C 68.097237,61.260583 76.007607,54.010593 88.405277,48.901153 C 91.625747,47.573913 94.260677,46.114053 94.260677,45.657043 C 94.260677,45.200013 96.063217,44.826093 98.266327,44.826093 C 101.87908,44.826093 103.12065,45.629423 110.92404,53.015983 C 115.68267,57.520423 120.76571,63.235793 122.21967,65.716803 L 124.86325,70.227733 L 120.86915,74.343383 C 115.59848,79.774443 112.58665,86.364303 112.60652,92.421913 C 112.62867,99.171853 115.02224,108.65576 117.5751,112.1087 C 118.7542,113.70352 119.71893,115.40041 119.71893,115.87955 C 119.71893,118.96062 146.40802,139.40475 154.67405,142.65556 C 156.45179,143.35469 160.19754,144.94904 162.99795,146.19855 C 172.98545,150.65489 190.81813,155.96199 205.25864,158.77557 C 223.41084,162.31233 242.21858,167.60281 246.14904,170.27775 C 247.6357,171.28952 249.46869,172.13596 250.22236,172.15872 C 250.97602,172.18148 253.17921,173.55622 255.11835,175.21371 C 257.05747,176.87119 259.26158,178.22731 260.01637,178.22731 C 262.89298,178.22731 272.69734,188.90299 275.75186,195.36123 C 278.66024,201.51049 278.77982,202.29577 278.38803,212.67284 C 277.99199,223.16264 277.79139,223.96616 272.65509,235.63681 C 266.02176,250.70896 263.67048,254.17006 253.34209,264.06577 C 250.3837,266.90022 245.80122,270.72366 243.15879,272.56232 C 234.57881,278.53242 210.874,289.52082 200.67616,292.2552 C 188.48728,295.52345 155.90635,297.77883 135.50304,296.76675 z M 286.11988,208.44379 C 283.92394,206.55492 283.34382,205.13905 283.26268,201.4704 C 283.11609,194.8416 285.50974,190.59002 295.20784,180.25361 C 306.2434,168.49172 308.10065,163.76742 306.11443,152.51051 C 305.39834,148.45211 304.37621,144.29892 303.84301,143.28122 C 302.83211,141.35174 303.67481,139.55101 308.82932,132.6261 L 311.31582,129.28557 L 313.97005,133.13526 C 321.67572,144.31156 323.55548,157.65958 318.84775,167.77126 C 316.06593,173.74627 311.7229,178.47 301.99999,186.09583 C 298.35946,188.95116 293.84524,192.88633 291.9684,194.84065 C 289.06019,197.86893 288.65914,198.86376 289.25426,201.57332 C 289.63833,203.32196 291.1001,206.11644 292.50264,207.78327 L 295.05273,210.81387 L 291.964,210.81387 C 290.19857,210.81387 287.69478,209.79846 286.11988,208.44379 z M 231.73522,155.19942 C 212.73597,150.25388 203.1717,146.58225 194.46077,140.89011 C 191.6024,139.02231 188.80411,137.49411 188.24236,137.49411 C 184.66819,137.49411 158.52513,111.65312 150.1237,99.815903 C 148.33488,97.295543 145.22993,93.301993 143.22382,90.941363 C 136.44442,82.963893 134.25502,79.982503 128.80201,71.302673 C 120.30042,57.770223 114.11848,50.028603 108.28819,45.613293 C 99.864257,39.233813 96.904157,38.269083 90.215427,39.723253 C 87.119547,40.396303 83.440917,41.404563 82.040717,41.963823 C 77.418447,43.809993 61.604007,43.996973 49.454157,42.349103 C 43.013217,41.475533 34.149167,40.268053 29.756257,39.665823 C 21.983195,38.600213 21.667875,38.641053 17.990725,41.189323 C 11.958205,45.369853 8.2589946,44.376793 2.7245746,37.091103 C -0.97436536,32.221703 -0.88856536,29.948453 2.8695746,33.249143 C 4.1275446,34.353993 6.8628946,36.133603 8.9481046,37.203843 L 12.739425,39.149713 L 15.767595,36.248533 C 18.475555,33.654143 19.312995,33.406083 23.687077,33.902633 C 29.248777,34.533993 30.643227,33.629063 45.669037,19.637313 C 50.028157,15.578183 54.954327,11.553983 56.616087,10.694653 C 58.277837,9.8353225 59.637457,8.7640925 59.637457,8.3141325 C 59.637457,7.3025425 67.523657,3.7762425 74.594587,1.6260625 C 89.248657,-2.8300485 108.05359,2.0073125 124.57455,14.482873 C 132.52707,20.488103 159.97208,48.001813 165.61728,55.628353 C 167.73485,58.489143 170.90886,62.384263 172.67062,64.284153 C 174.43238,66.184053 178.8187,71.204233 182.418,75.440123 C 194.80274,90.015253 210.27487,98.689843 234.98019,104.90957 C 247.78868,108.13419 249.23218,108.30752 252.80096,107.04947 C 261.76564,103.88927 268.26628,95.202533 266.94342,88.151083 C 265.79368,82.022463 253.37888,70.963553 240.19664,64.325473 C 224.14545,56.242693 213.28971,53.970873 186.70217,53.130543 L 165.59986,52.463563 L 152.91084,37.206603 C 144.46351,27.049743 140.62454,21.697283 141.42658,21.194703 C 142.85417,20.300153 174.16474,12.958603 184.38288,11.122513 C 188.30345,10.418033 197.46842,9.8543825 204.74948,9.8699425 C 215.88799,9.8937425 220.08754,10.392483 231.22606,13.014303 C 238.50711,14.728133 246.06821,16.689923 248.0285,17.373813 C 264.31361,23.055293 281.34525,33.425353 293.11575,44.826093 C 307.99458,59.237523 314.70674,72.873283 315.81952,90.948823 C 317.41584,116.87908 308.86032,136.85291 291.80539,147.01248 C 288.67653,148.87633 283.84766,151.19518 281.07457,152.16548 C 268.55364,156.5465 242.95699,158.12047 231.73522,155.19942 z M 76.330947,22.848713 C 76.670917,21.962783 76.894847,20.244353 76.828587,19.029973 C 76.741167,17.427943 76.528817,17.660403 76.054827,19.877003 C 75.480447,22.563113 74.972417,22.931993 71.847417,22.931993 C 68.708347,22.931993 68.254927,22.597753 67.965097,20.070013 C 67.784607,18.495913 68.184407,16.548363 68.853537,15.742113 C 69.590567,14.854043 69.658837,14.276193 69.026737,14.276193 C 67.389337,14.276193 65.930327,19.625703 66.872837,22.173523 C 67.552457,24.010723 68.503177,24.459493 71.715657,24.459493 C 74.421167,24.459493 75.912577,23.938973 76.330947,22.848713 z M 255.05931,98.297423 C 248.39442,94.674313 193.87307,77.412653 189.09427,77.412653 C 187.94345,77.412653 183.73224,73.669943 178.78206,68.247683 C 171.53133,60.305463 170.73542,59.082743 172.81647,59.082953 C 177.75675,59.083443 199.17812,63.031253 204.91025,64.997613 C 208.18232,66.120063 212.6628,67.347203 214.86689,67.724593 C 222.4565,69.024123 253.01223,84.145443 261.19427,90.650943 L 264.39619,93.196763 L 262.06774,96.488743 C 259.45943,100.17638 258.81954,100.34153 255.05931,98.297423 z M 116.40935,96.191953 C 113.89847,93.598653 118.31935,81.450753 123.54554,76.582883 L 126.0763,74.225633 L 127.85045,77.092053 C 128.82625,78.668583 131.74536,82.668553 134.33738,85.980873 L 139.05014,92.003293 L 134.86505,93.877003 C 130.35986,95.894043 117.66291,97.486663 116.40935,96.191953 z" id="path1308" sodipodi:nodetypes="csssssssssscccssssssssssssssssssssssssssscccssssssssssssssssccsssscccsssscccccssssssssssssscccssssssssssssscccsssssssssccssssssssccssssscccccccccccc"/>
</svg>